{
  "systems/n5e/icons/items/armor/halfplate.png": "icons/equipment/chest/breastplate-layered-steel-black.webp",
  "systems/n5e/icons/items/armor/hide.png": "icons/equipment/chest/breastplate-scale-leather.webp",
  "systems/n5e/icons/items/armor/leather.png": "icons/equipment/chest/breastplate-quilted-brown.webp",
  "systems/n5e/icons/items/armor/leather-forest.png": "icons/equipment/back/mantle-collared-green.webp",
  "systems/n5e/icons/items/armor/leather-forest.jpg": "icons/equipment/back/mantle-collared-green.webp",
  "systems/n5e/icons/items/armor/plate.png": "icons/equipment/chest/breastplate-cuirass-steel-grey.webp",
  "systems/n5e/icons/items/armor/robe.png": "icons/equipment/back/mantle-collared-black.webp",
  "systems/n5e/icons/items/armor/robe.jpg": "icons/equipment/back/mantle-collared-black.webp",
  "systems/n5e/icons/items/armor/scale.png": "icons/equipment/chest/breastplate-metal-scaled-grey.webp",
  "systems/n5e/icons/items/armor/shield.png": "icons/equipment/shield/oval-wooden-boss-steel.webp",
  "systems/n5e/icons/items/armor/spiked.png": "icons/equipment/chest/breastplate-layered-steel-grey.webp",
  "systems/n5e/icons/items/armor/splint.png": "icons/equipment/chest/breastplate-layered-steel.webp",
  "systems/n5e/icons/items/armor/studded.png": "icons/equipment/chest/breastplate-rivited-red.webp",
  "systems/n5e/icons/items/equipment/belt-buckle.jpg": "icons/equipment/waist/belt-coiled-leather-steel.webp",
  "systems/n5e/icons/items/equipment/belt-cloth.jpg": "icons/equipment/waist/cloth-sash-purple.webp",
  "systems/n5e/icons/items/equipment/belt-cord.jpg": "icons/equipment/waist/belt-rope.webp",
  "systems/n5e/icons/items/equipment/belt-gems.jpg": "icons/equipment/waist/belt-thick-gemmed-steel-grey.webp",
  "systems/n5e/icons/items/equipment/belt-girdle.jpg": "icons/equipment/waist/sash-cloth-gold-purple.webp",
  "systems/n5e/icons/items/equipment/belt-plain.jpg": "icons/equipment/waist/belt-buckle-square-leather-brown.webp",
  "systems/n5e/icons/items/equipment/belt-rock.jpg": "icons/equipment/waist/belt-armored-steel.webp",
  "systems/n5e/icons/items/equipment/boots.png": "icons/equipment/feet/boots-leather-banded-furred.webp",
  "systems/n5e/icons/items/equipment/bootsfancy.png": "icons/equipment/feet/shoes-collared-leather-blue.webp",
  "systems/n5e/icons/items/equipment/boots-leather.jpg": "icons/equipment/feet/boots-collared-rounded-brown.webp",
  "systems/n5e/icons/items/equipment/boots-plain.jpg": "icons/equipment/feet/boots-collared-simple-leather.webp",
  "systems/n5e/icons/items/equipment/bracers-defense.jpg": "icons/equipment/wrist/bracer-segmented-leather.webp",
  "systems/n5e/icons/items/equipment/bracers-leather.jpg": "icons/equipment/wrist/bracer-studded-leather-steel.webp",
  "systems/n5e/icons/items/equipment/cloak-fur.jpg": "icons/equipment/back/cloak-heavy-fur-blue.webp",
  "systems/n5e/icons/items/equipment/cloak-pink.jpg": "icons/equipment/back/cloak-hooded-pink.webp",
  "systems/n5e/icons/items/equipment/cloak-plain.jpg": "icons/equipment/back/cloak-brown.webp",
  "systems/n5e/icons/items/equipment/cowl.jpg": "icons/equipment/back/cloak-hooded-blue.webp",
  "systems/n5e/icons/items/equipment/gloves.jpg": "icons/equipment/hand/glove-simple-leather-orange.webp",
  "systems/n5e/icons/items/equipment/helmet-steel.jpg": "icons/equipment/head/greathelm-shemagh.webp",
  "systems/n5e/icons/items/equipment/pants.jpg": "icons/equipment/leg/pants-brown-leather-pants.webp",
  "systems/n5e/icons/items/equipment/tunic.jpg": "icons/equipment/chest/shirt-collared-brown.webp",
  "systems/n5e/icons/items/inventory/amber.jpg": "icons/commodities/gems/gem-amber-insect-orange.webp",
  "systems/n5e/icons/items/inventory/anvil.jpg": "icons/tools/smithing/anvil.webp",
  "systems/n5e/icons/items/inventory/arrowhead.jpg": "icons/commodities/metal/arrowhead-steel.webp",
  "systems/n5e/icons/items/inventory/backpack.jpg": "icons/containers/bags/pack-simple-leather.webp",
  "systems/n5e/icons/items/inventory/badge-banner.jpg": "icons/sundries/flags/banner-symbol-axe-red.webp",
  "systems/n5e/icons/items/inventory/badge-blue.jpg": "icons/commodities/tech/metal-blue.webp",
  "systems/n5e/icons/items/inventory/badge-coin.jpg": "icons/commodities/currency/coin-engraved-slot-one-copper.webp",
  "systems/n5e/icons/items/inventory/badge-cross.jpg": "icons/commodities/treasure/token-cross-gem-yellow.webp",
  "systems/n5e/icons/items/inventory/badge-hammer.jpg": "icons/equipment/neck/amulet-carved-stone-hammer.webp",
  "systems/n5e/icons/items/inventory/badge-shield.jpg": "icons/equipment/shield/heater-wooden-brown-notched.webp",
  "systems/n5e/icons/items/inventory/badge-skull.jpg": "icons/commodities/currency/coin-inset-skull-copper.webp",
  "systems/n5e/icons/items/inventory/badge-sun.jpg": "icons/sundries/flags/banner-symbol-sun-gold-red.webp",
  "systems/n5e/icons/items/inventory/badge-sword.jpg": "icons/equipment/shield/heater-steel-sword-yellow-black.webp",
  "systems/n5e/icons/items/inventory/badge-tiger.jpg": "icons/equipment/head/mask-tiger-silver.webp",
  "systems/n5e/icons/items/inventory/bamboo.jpg": "icons/commodities/wood/bamboo-brown.webp",
  "systems/n5e/icons/items/inventory/banner-blue.jpg": "icons/sundries/flags/banner-standard-blue.webp",
  "systems/n5e/icons/items/inventory/banner-green.jpg": "icons/sundries/flags/banner-standard-green.webp",
  "systems/n5e/icons/items/inventory/banner-purple.jpg": "icons/sundries/flags/banner-standard-purple.webp",
  "systems/n5e/icons/items/inventory/banner-red.jpg": "icons/sundries/flags/banner-standard-brown.webp",
  "systems/n5e/icons/items/inventory/bar-bronze.jpg": "icons/commodities/metal/ingot-stamped-bronze.webp",
  "systems/n5e/icons/items/inventory/bar-gold.jpg": "icons/commodities/metal/ingot-gold.webp",
  "systems/n5e/icons/items/inventory/barrel.jpg": "icons/containers/barrels/barrel-walnut-steel-brown.webp",
  "systems/n5e/icons/items/inventory/bar-silver.jpg": "icons/commodities/metal/ingot-stamped-silver.webp",
  "systems/n5e/icons/items/inventory/beads-rune.jpg": "icons/equipment/neck/necklace-runed-white-red.webp",
  "systems/n5e/icons/items/inventory/bell_brass.jpg": "icons/tools/instruments/bell-brass-brown.webp",
  "systems/n5e/icons/items/inventory/bell_silver.jpg": "icons/tools/instruments/bell-silver.webp",
  "systems/n5e/icons/items/inventory/bills.jpg": "icons/sundries/misc/admission-ticket-grey.webp",
  "systems/n5e/icons/items/inventory/bomb.jpg": "icons/weapons/thrown/bomb-fuse-black-pink.webp",
  "systems/n5e/icons/items/inventory/book.jpg": "icons/sundries/books/book-worn-red.webp",
  "systems/n5e/icons/items/inventory/book-blue.jpg": "icons/sundries/books/book-symbol-triangle-silver-blue.webp",
  "systems/n5e/icons/items/inventory/book-diary.jpg": "icons/sundries/books/book-worn-brown.webp",
  "systems/n5e/icons/items/inventory/book-folder.jpg": "icons/sundries/books/book-embossed-clasp-gold-brown.webp",
  "systems/n5e/icons/items/inventory/book-grey.jpg": "icons/sundries/books/book-black-grey.webp",
  "systems/n5e/icons/items/inventory/book-orange.jpg": "icons/sundries/books/book-plain-orange.webp",
  "systems/n5e/icons/items/inventory/book-purple.jpg": "icons/sundries/books/book-embossed-jewel-gold-purple.webp",
  "systems/n5e/icons/items/inventory/book-red.jpg": "icons/sundries/books/book-backed-silver-red.webp",
  "systems/n5e/icons/items/inventory/book-tan.jpg": "icons/sundries/books/book-embossed-steel-brown.webp",
  "systems/n5e/icons/items/inventory/book-yellow.jpg": "icons/sundries/books/book-backed-blue-gold.webp",
  "systems/n5e/icons/items/inventory/bottle-empty.jpg": "icons/consumables/potions/bottle-bulb-empty-glass.webp",
  "systems/n5e/icons/items/inventory/bottle-opener.jpg": "icons/commodities/metal/pin-cottar-steel.webp",
  "systems/n5e/icons/items/inventory/bowl-broth.jpg": "icons/consumables/food/soup-broth-bowl-wooden-yellow.webp",
  "systems/n5e/icons/items/inventory/bowl-porridge.jpg": "icons/tools/laboratory/bowl-mixing.webp",
  "systems/n5e/icons/items/inventory/bread.jpg": "icons/consumables/grains/bread-loaf-boule-rustic-brown.webp",
  "systems/n5e/icons/items/inventory/briefcase.jpg": "icons/containers/bags/case-leather-tan.webp",
  "systems/n5e/icons/items/inventory/broken-blade.jpg": "icons/commodities/metal/fragments-sword-steel.webp",
  "systems/n5e/icons/items/inventory/brush.jpg": "icons/tools/hand/brush-paint-pink.webp",
  "systems/n5e/icons/items/inventory/brush-bowl.jpg": "icons/tools/hand/brush-paint-brown-white.webp",
  "systems/n5e/icons/items/inventory/cage.jpg": "icons/environment/traps/cage-simple-wood.webp",
  "systems/n5e/icons/items/inventory/caltrop.jpg": "icons/weapons/thrown/bomb-spiked-purple.webp",
  "systems/n5e/icons/items/inventory/candle.jpg": "icons/sundries/lights/candle-unlit-white.webp",
  "systems/n5e/icons/items/inventory/candle-melted.jpg": "icons/sundries/lights/candle-unlit-red.webp",
  "systems/n5e/icons/items/inventory/candle-stub.jpg": "icons/sundries/lights/candle-unlit-grey.webp",
  "systems/n5e/icons/items/inventory/carving-knot.jpg": "icons/commodities/metal/clasp-steel-braid.webp",
  "systems/n5e/icons/items/inventory/cauldron.jpg": "icons/tools/laboratory/cauldron-filled-gold.webp",
  "systems/n5e/icons/items/inventory/chain.jpg": "icons/tools/fasteners/chain-steel-grey.webp",
  "systems/n5e/icons/items/inventory/chain-gold.jpg": "icons/equipment/neck/choker-chain-thin-gold.webp",
  "systems/n5e/icons/items/inventory/chain-silver.jpg": "icons/equipment/neck/choker-chain-thick-silver.webp",
  "systems/n5e/icons/items/inventory/chalice-cracked.jpg": "icons/containers/kitchenware/goblet-worn-clay-white.webp",
  "systems/n5e/icons/items/inventory/chalice-gems.jpg": "icons/commodities/treasure/goblet-worn-gold.webp",
  "systems/n5e/icons/items/inventory/chalice-silver.jpg": "icons/containers/kitchenware/goblet-worn-white.webp",
  "systems/n5e/icons/items/inventory/charm-lucky.jpg": "icons/commodities/materials/hair-tuft-white-brown.webp",
  "systems/n5e/icons/items/inventory/chest-dark.jpg": "icons/containers/chest/chest-reinforced-steel-walnut-brown.webp",
  "systems/n5e/icons/items/inventory/chest-light.jpg": "icons/containers/chest/chest-elm-steel-brown.webp",
  "systems/n5e/icons/items/inventory/chest-red.jpg": "icons/containers/chest/chest-reinforced-steel-red.webp",
  "systems/n5e/icons/items/inventory/chest-stone.jpg": "icons/containers/chest/chest-reinforced-stone.webp",
  "systems/n5e/icons/items/inventory/chitin.jpg": "icons/commodities/claws/claw-insect-brown.webp",
  "systems/n5e/icons/items/inventory/chrysalis.jpg": "icons/environment/creatures/bug-larva-orange.webp",
  "systems/n5e/icons/items/inventory/claw.jpg": "icons/commodities/biological/stinger-insect-brown.webp",
  "systems/n5e/icons/items/inventory/cloth-blue.jpg": "icons/sundries/flags/banner-worn-blue.webp",
  "systems/n5e/icons/items/inventory/cloth-green.jpg": "icons/sundries/flags/banner-worn-green.webp",
  "systems/n5e/icons/items/inventory/cloth-red.jpg": "icons/sundries/flags/banner-worn-red.webp",
  "systems/n5e/icons/items/inventory/coin-copper.jpg": "icons/commodities/currency/coin-oval-rune-copper.webp",
  "systems/n5e/icons/items/inventory/coin-gold.jpg": "icons/commodities/currency/coin-plain-gold.webp",
  "systems/n5e/icons/items/inventory/coins-bronze.jpg": "icons/commodities/currency/coins-assorted-mix-platinum.webp",
  "systems/n5e/icons/items/inventory/coins-gold.jpg": "icons/commodities/currency/coins-assorted-mix-copper.webp",
  "systems/n5e/icons/items/inventory/coin-silver.jpg": "icons/commodities/currency/coin-inset-lightning-silver.webp",
  "systems/n5e/icons/items/inventory/coins-silver.jpg": "icons/commodities/currency/coins-assorted-mix-silver.webp",
  "systems/n5e/icons/items/inventory/collar-blue.jpg": "icons/sundries/misc/pet-collar-blue.webp",
  "systems/n5e/icons/items/inventory/collar-red.jpg": "icons/sundries/misc/pet-collar-red.webp",
  "systems/n5e/icons/items/inventory/coral-tan.jpg": "icons/commodities/stone/geode-raw-brown.webp",
  "systems/n5e/icons/items/inventory/coral-white.jpg": "icons/commodities/stone/rock-chunk-pumice-white.webp",
  "systems/n5e/icons/items/inventory/crystal-purple.jpg": "icons/commodities/gems/gem-rough-cushion-purple-pink.webp",
  "systems/n5e/icons/items/inventory/dice.jpg": "icons/sundries/gaming/dice-runed-brown.webp",
  "systems/n5e/icons/items/inventory/drum.jpg": "icons/tools/instruments/drum-brown-red.webp",
  "systems/n5e/icons/items/inventory/egg-painted.jpg": "icons/consumables/eggs/egg-painted-blue.webp",
  "systems/n5e/icons/items/inventory/element-air.jpg": "icons/commodities/gems/pearl-storm.webp",
  "systems/n5e/icons/items/inventory/element-earth.jpg": "icons/commodities/gems/pearl-rock.webp",
  "systems/n5e/icons/items/inventory/element-fire.jpg": "icons/commodities/gems/pearl-fire.webp",
  "systems/n5e/icons/items/inventory/element-water.jpg": "icons/commodities/gems/pearl-swirl-blue.webp",
  "systems/n5e/icons/items/inventory/essence-void.jpg": "icons/tools/laboratory/bowl-powder-purple.webp",
  "systems/n5e/icons/items/inventory/feather-blue.jpg": "icons/commodities/materials/feather-blue.webp",
  "systems/n5e/icons/items/inventory/feather-green.jpg": "icons/commodities/materials/feather-white.webp",
  "systems/n5e/icons/items/inventory/feather-green-stripe.jpg": "icons/commodities/materials/feather-colored-green.webp",
  "systems/n5e/icons/items/inventory/feather-purple-stripe.jpg": "icons/commodities/materials/feather-colored-blue.webp",
  "systems/n5e/icons/items/inventory/feather-red.jpg": "icons/commodities/materials/feather-red-.webp",
  "systems/n5e/icons/items/inventory/feather-red-stripe.jpg": "icons/commodities/materials/feather-colored-red.webp",
  "systems/n5e/icons/items/inventory/feather-teal.jpg": "icons/commodities/materials/feather-teal.webp",
  "systems/n5e/icons/items/inventory/feather-white.jpg": "icons/commodities/materials/feather-blue-grey.webp",
  "systems/n5e/icons/items/inventory/feather-yellow.jpg": "icons/commodities/materials/feather-yellow.webp",
  "systems/n5e/icons/items/inventory/fish.jpg": "icons/environment/creatures/fish-goldfish-grey-orange.webp",
  "systems/n5e/icons/items/inventory/flask.jpg": "icons/sundries/survival/waterskin-leather-brown.webp",
  "systems/n5e/icons/items/inventory/flask-dark.jpg": "icons/consumables/drinks/tea-jug-gourd-brown.webp",
  "systems/n5e/icons/items/inventory/flute.jpg": "icons/tools/instruments/flute-simple-wood.webp",
  "systems/n5e/icons/items/inventory/fork.jpg": "icons/tools/cooking/fork-steel-grey.webp",
  "systems/n5e/icons/items/inventory/fungus.jpg": "icons/consumables/mushrooms/convex-green-brown.webp",
  "systems/n5e/icons/items/inventory/gem-blue.jpg": "icons/commodities/gems/gem-rough-rose-teal.webp",
  "systems/n5e/icons/items/inventory/gem-green.jpg": "icons/commodities/gems/gem-rough-cushion-green.webp",
  "systems/n5e/icons/items/inventory/gem-purple.jpg": "icons/commodities/gems/gem-rough-ball-purple.webp",
  "systems/n5e/icons/items/inventory/gem-red.jpg": "icons/commodities/gems/gem-rough-cushion-red.webp",
  "systems/n5e/icons/items/inventory/gems-crate.jpg": "icons/containers/chest/chest-simple-box-gold-brown.webp",
  "systems/n5e/icons/items/inventory/gems-gold-pile.jpg": "icons/commodities/stone/ore-pile-gold.webp",
  "systems/n5e/icons/items/inventory/gemstone-blue.jpg": "icons/commodities/gems/gem-rough-cushion-blue.webp",
  "systems/n5e/icons/items/inventory/gem-yellow.jpg": "icons/commodities/gems/gem-faceted-octagon-yellow.webp",
  "systems/n5e/icons/items/inventory/grain.jpg": "icons/consumables/grains/sack-oats-glowing-white.webp",
  "systems/n5e/icons/items/inventory/grave.jpg": "icons/sundries/misc/tombstone.webp",
  "systems/n5e/icons/items/inventory/hammer.jpg": "icons/tools/smithing/hammer-sledge-steel-grey.webp",
  "systems/n5e/icons/items/inventory/hankerchief.jpg": "icons/commodities/cloth/cloth-green-folded.webp",
  "systems/n5e/icons/items/inventory/herb.jpg": "icons/consumables/plants/herb-marjoram-basil-oregano-leaf-bunch-green.webp",
  "systems/n5e/icons/items/inventory/herbalism-kit.jpg": "icons/containers/bags/pouch-leather-green.webp",
  "systems/n5e/icons/items/inventory/herb-bag.jpg": "icons/containers/bags/sack-simple-green.webp",
  "systems/n5e/icons/items/inventory/herb-satchel.jpg": "icons/containers/bags/pouch-gold-green.webp",
  "systems/n5e/icons/items/inventory/hook-hand.jpg": "icons/weapons/fist/hook.webp",
  "systems/n5e/icons/items/inventory/horn.jpg": "icons/tools/instruments/flute-simple-wood.webp",
  "systems/n5e/icons/items/inventory/horn-air.jpg": "icons/tools/instruments/horn-red-brown.webp",
  "systems/n5e/icons/items/inventory/horn-drinking.jpg": "icons/commodities/bones/horn-carved-cornucopia-tan.webp",
  "systems/n5e/icons/items/inventory/horseshoe.jpg": "icons/tools/smithing/horseshoe-steel-blue.webp",
  "systems/n5e/icons/items/inventory/jug.jpg": "icons/containers/kitchenware/jug-terracotta-orange.webp",
  "systems/n5e/icons/items/inventory/key-brass.jpg": "icons/sundries/misc/key-brass.webp",
  "systems/n5e/icons/items/inventory/key-bronze.jpg": "icons/sundries/misc/key-short-gold.webp",
  "systems/n5e/icons/items/inventory/key-gold.jpg": "icons/sundries/misc/key-gold.webp",
  "systems/n5e/icons/items/inventory/key-iron.jpg": "icons/sundries/misc/key-steel-grey.webp",
  "systems/n5e/icons/items/inventory/key-purple.jpg": "icons/sundries/misc/key-steel-purple.webp",
  "systems/n5e/icons/items/inventory/key-silver.jpg": "icons/sundries/misc/key-steel-grey.webp",
  "systems/n5e/icons/items/inventory/key-steel.jpg": "icons/sundries/misc/key-steel.webp",
  "systems/n5e/icons/items/inventory/ladle.jpg": "icons/tools/cooking/soup-ladle.webp",
  "systems/n5e/icons/items/inventory/lamp.jpg": "icons/commodities/treasure/lantern-stone-grey.webp",
  "systems/n5e/icons/items/inventory/lantern.jpg": "icons/sundries/lights/lantern-iron-yellow.webp",
  "systems/n5e/icons/items/inventory/letter-sealed.jpg": "icons/sundries/documents/document-sealed-red-white.webp",
  "systems/n5e/icons/items/inventory/letters-sealed.jpg": "icons/sundries/documents/envelope-stealed-brown.webp",
  "systems/n5e/icons/items/inventory/liquid-blue.jpg": "icons/commodities/materials/liquid-blue.webp",
  "systems/n5e/icons/items/inventory/liquid-green.jpg": "icons/commodities/materials/liquid-green.webp",
  "systems/n5e/icons/items/inventory/liquid-orange.jpg": "icons/commodities/materials/liquid-orange.webp",
  "systems/n5e/icons/items/inventory/liquid-purple.jpg": "icons/commodities/materials/liquid-purple.webp",
  "systems/n5e/icons/items/inventory/lock.jpg": "icons/sundries/misc/lock-steel-blue.webp",
  "systems/n5e/icons/items/inventory/lockpick.jpg": "icons/tools/hand/lockpicks-steel-grey.webp",
  "systems/n5e/icons/items/inventory/lute.jpg": "icons/tools/instruments/lute-gold-brown.webp",
  "systems/n5e/icons/items/inventory/map-treasure.jpg": "icons/tools/navigation/map-simple-brown.webp",
  "systems/n5e/icons/items/inventory/map-xmark.jpg": "icons/tools/navigation/map-marked-red.webp",
  "systems/n5e/icons/items/inventory/mask-bird.jpg": "icons/equipment/head/mask-plague-grey.webp",
  "systems/n5e/icons/items/inventory/mask-bone.jpg": "icons/equipment/head/mask-craved-beige.webp",
  "systems/n5e/icons/items/inventory/meat.jpg": "icons/consumables/meat/hock-leg-pink-brown.webp",
  "systems/n5e/icons/items/inventory/mechanical-part.jpg": "icons/equipment/finger/ring-band-studded.webp",
  "systems/n5e/icons/items/inventory/medal.jpg": "icons/commodities/treasure/medal-ribbon-gold-blue.webp",
  "systems/n5e/icons/items/inventory/monster-angel-wing.jpg": "icons/commodities/treasure/trinket-wing-white.webp",
  "systems/n5e/icons/items/inventory/monster-antler.jpg": "icons/commodities/bones/horn-antler-brown.webp",
  "systems/n5e/icons/items/inventory/monster-bat.jpg": "icons/commodities/biological/wing-lizard-pink-purple.webp",
  "systems/n5e/icons/items/inventory/monster-beak.jpg": "icons/commodities/bones/beak-orange-green.webp",
  "systems/n5e/icons/items/inventory/monster-beak-curved.jpg": "icons/commodities/bones/beak-hooked-red.webp",
  "systems/n5e/icons/items/inventory/monster-bones.jpg": "icons/commodities/bones/bone-fragments-grey.webp",
  "systems/n5e/icons/items/inventory/monster-brain.jpg": "icons/commodities/biological/organ-brain-red.webp",
  "systems/n5e/icons/items/inventory/monster-cat.jpg": "icons/commodities/bones/skull-bat-grey.webp",
  "systems/n5e/icons/items/inventory/monster-chitin.jpg": "icons/commodities/biological/shell-tan.webp",
  "systems/n5e/icons/items/inventory/monster-chitin-blue.jpg": "icons/commodities/biological/shell-ridged-blue.webp",
  "systems/n5e/icons/items/inventory/monster-chitin-green.jpg": "icons/commodities/biological/shell-ridged-green.webp",
  "systems/n5e/icons/items/inventory/monster-claw.jpg": "icons/commodities/claws/claw-pincer-red.webp",
  "systems/n5e/icons/items/inventory/monster-claws.jpg": "icons/commodities/claws/talon-black.webp",
  "systems/n5e/icons/items/inventory/monster-demon-wing.jpg": "icons/commodities/biological/wing-lizard-green.webp",
  "systems/n5e/icons/items/inventory/monster-disease.jpg": "icons/commodities/biological/pustules-brown.webp",
  "systems/n5e/icons/items/inventory/monster-dragonfly.jpg": "icons/commodities/biological/wing-insect-blue.webp",
  "systems/n5e/icons/items/inventory/monster-eye.jpg": "icons/commodities/biological/eye-red-pink.webp",
  "systems/n5e/icons/items/inventory/monster-eyeball.jpg": "icons/commodities/biological/eye-purple.webp",
  "systems/n5e/icons/items/inventory/monster-eyes.jpg": "icons/commodities/biological/eye-blue-gold.webp",
  "systems/n5e/icons/items/inventory/monster-finger.jpg": "icons/commodities/biological/finger-clawed-green-black.webp",
  "systems/n5e/icons/items/inventory/monster-flesh.jpg": "icons/consumables/food/dried-meat-jerky-fish-red.webp",
  "systems/n5e/icons/items/inventory/monster-forearm.jpg": "icons/commodities/claws/claw-brown-black.webp",
  "systems/n5e/icons/items/inventory/monster-head.jpg": "icons/commodities/biological/mouth-toothed-purple.webp",
  "systems/n5e/icons/items/inventory/monster-heart.jpg": "icons/consumables/meat/heart-organ-realistic-red.webp",
  "systems/n5e/icons/items/inventory/monster-hoof.jpg": "icons/commodities/bones/hooves-cloven-brown.webp",
  "systems/n5e/icons/items/inventory/monster-horn.jpg": "icons/commodities/bones/horn-curved-worn-brown.webp",
  "systems/n5e/icons/items/inventory/monster-horn-demon.jpg": "icons/commodities/bones/horn-jagged-grey.webp",
  "systems/n5e/icons/items/inventory/monster-insect-wing.jpg": "icons/commodities/biological/wing-insect-green.webp",
  "systems/n5e/icons/items/inventory/monster-intenstines.jpg": "icons/commodities/biological/organ-intestines-red.webp",
  "systems/n5e/icons/items/inventory/monster-jaw.jpg": "icons/commodities/bones/bone-jaw-teeth-brown.webp",
  "systems/n5e/icons/items/inventory/monster-kidney.jpg": "icons/commodities/biological/organ-liver-red.webp",
  "systems/n5e/icons/items/inventory/monster-larva.jpg": "icons/environment/creatures/monster-barbed-carapace-purple.webp",
  "systems/n5e/icons/items/inventory/monster-leg-insect.jpg": "icons/creatures/claws/claw-curved-jagged-gray.webp",
  "systems/n5e/icons/items/inventory/monster-legs-insect.jpg": "icons/commodities/biological/legs-insect-brown.webp",
  "systems/n5e/icons/items/inventory/monster-lung.jpg": "icons/commodities/biological/organ-stomach.webp",
  "systems/n5e/icons/items/inventory/monster-mantis.jpg": "icons/commodities/claws/claws-mantis.webp",
  "systems/n5e/icons/items/inventory/monster-octopus.jpg": "icons/commodities/biological/tentacle-purple-white.webp",
  "systems/n5e/icons/items/inventory/monster-paw.jpg": "icons/commodities/claws/claw-bear-brown-grey.webp",
  "systems/n5e/icons/items/inventory/monster-paw-bear.jpg": "icons/commodities/claws/claw-bear-brown.webp",
  "systems/n5e/icons/items/inventory/monster-ribs.jpg": "icons/consumables/food/short-ribs-cooked-meat-brown.webp",
  "systems/n5e/icons/items/inventory/monster-scorpion.jpg": "icons/commodities/biological/stinger-insect-grey.webp",
  "systems/n5e/icons/items/inventory/monster-skeleton.jpg": "icons/commodities/bones/skull-hollow-grey.webp",
  "systems/n5e/icons/items/inventory/monster-skin.jpg": "icons/commodities/biological/pustules-red.webp",
  "systems/n5e/icons/items/inventory/monster-skull.jpg": "icons/commodities/bones/skull-tusked-grey.webp",
  "systems/n5e/icons/items/inventory/monster-skull-fangs.jpg": "icons/commodities/bones/skull-feline-grey.webp",
  "systems/n5e/icons/items/inventory/monster-snail.jpg": "icons/commodities/biological/shell-gold.webp",
  "systems/n5e/icons/items/inventory/monster-snake.jpg": "icons/commodities/biological/tail-rodent-striped-red.webp",
  "systems/n5e/icons/items/inventory/monster-tail.jpg": "icons/commodities/biological/tail-puff-grey.webp",
  "systems/n5e/icons/items/inventory/monster-talon-green.jpg": "icons/commodities/biological/hand-gnarled-green.webp",
  "systems/n5e/icons/items/inventory/monster-talon-purple.jpg": "icons/commodities/biological/hand-gnarled-purple.webp",
  "systems/n5e/icons/items/inventory/monster-talons.jpg": "icons/commodities/claws/claws-white.webp",
  "systems/n5e/icons/items/inventory/monster-teeth.jpg": "icons/commodities/claws/claws-plain-white.webp",
  "systems/n5e/icons/items/inventory/monster-tentacle.jpg": "icons/commodities/biological/antenna-blue.webp",
  "systems/n5e/icons/items/inventory/monster-tongue.jpg": "icons/commodities/biological/tongue-pink.webp",
  "systems/n5e/icons/items/inventory/monster-tooth.jpg": "icons/commodities/bones/tooth-shark-brown-white.webp",
  "systems/n5e/icons/items/inventory/monster-tumor.jpg": "icons/commodities/biological/pustules-pink.webp",
  "systems/n5e/icons/items/inventory/monster-tusk.jpg": "icons/commodities/bones/horn-simple-grey.webp",
  "systems/n5e/icons/items/inventory/monster-tusk-bloody.jpg": "icons/commodities/bones/horn-worn-white.webp",
  "systems/n5e/icons/items/inventory/monster-venom.jpg": "icons/commodities/biological/organ-heart-black.webp",
  "systems/n5e/icons/items/inventory/monster-whirl.jpg": "icons/commodities/bones/hurn-curved-yellow.webp",
  "systems/n5e/icons/items/inventory/net.jpg": "icons/tools/fishing/net-simple-brown.webp",
  "systems/n5e/icons/items/inventory/note-letter.jpg": "icons/sundries/documents/envelope-sealed-red-tan.webp",
  "systems/n5e/icons/items/inventory/note-scroll.jpg": "icons/sundries/scrolls/scroll-bound-orange-tan.webp",
  "systems/n5e/icons/items/inventory/note-sealed.jpg": "icons/sundries/scrolls/scroll-bound-sealed-red-white.webp",
  "systems/n5e/icons/items/inventory/ore-blue.jpg": "icons/commodities/stone/ore-pile-teal.webp",
  "systems/n5e/icons/items/inventory/ore-copper.jpg": "icons/commodities/stone/ore-chunk-orange.webp",
  "systems/n5e/icons/items/inventory/ore-gold.jpg": "icons/commodities/stone/ore-pile-gold.webp",
  "systems/n5e/icons/items/inventory/ore-green.jpg": "icons/commodities/stone/ore-pile-green.webp",
  "systems/n5e/icons/items/inventory/ore-purple.jpg": "icons/commodities/stone/ore-pile-purple.webp",
  "systems/n5e/icons/items/inventory/ore-red.jpg": "icons/commodities/stone/ore-pile-red.webp",
  "systems/n5e/icons/items/inventory/ore-silver.jpg": "icons/commodities/stone/ore-chunk-grey.webp",
  "systems/n5e/icons/items/inventory/ore-yellow.jpg": "icons/commodities/stone/ore-pile-orange.webp",
  "systems/n5e/icons/items/inventory/paper.jpg": "icons/sundries/documents/document-bound-white.webp",
  "systems/n5e/icons/items/inventory/parchment.jpg": "icons/sundries/documents/document-symbol-circle-gold-red.webp",
  "systems/n5e/icons/items/inventory/pearl.jpg": "icons/commodities/gems/pearl-natural.webp",
  "systems/n5e/icons/items/inventory/pickaxe.jpg": "icons/tools/hand/pickaxe-steel-white.webp",
  "systems/n5e/icons/items/inventory/piggybank.jpg": "icons/sundries/misc/piggybank.webp",
  "systems/n5e/icons/items/inventory/pipe.jpg": "icons/sundries/misc/pipe-elegant.webp",
  "systems/n5e/icons/items/inventory/plant-branch.jpg": "icons/commodities/claws/claw-insect-tan.webp",
  "systems/n5e/icons/items/inventory/plant-leaf.jpg": "icons/consumables/plants/fern-lady-green.webp",
  "systems/n5e/icons/items/inventory/plant-root.jpg": "icons/commodities/biological/tentacle-thorned-green.webp",
  "systems/n5e/icons/items/inventory/plant-sprouts.jpg": "icons/consumables/vegetable/garlic-clove-sprout-green.webp",
  "systems/n5e/icons/items/inventory/plant-vine.jpg": "icons/commodities/claws/claw-spiked-gold.webp",
  "systems/n5e/icons/items/inventory/plate-blue.jpg": "icons/commodities/stone/paver-tile-blue.webp",
  "systems/n5e/icons/items/inventory/plate-bronze.jpg": "icons/commodities/stone/paver-tile-orange.webp",
  "systems/n5e/icons/items/inventory/plate-purple.jpg": "icons/commodities/stone/paver-tile-purple.webp",
  "systems/n5e/icons/items/inventory/pot.jpg": "icons/containers/kitchenware/vase-clay-etched-brown.webp",
  "systems/n5e/icons/items/inventory/pouch.jpg": "icons/containers/bags/coinpouch-simple-tan.webp",
  "systems/n5e/icons/items/inventory/pouch-belt.jpg": "icons/containers/bags/pouch-leather-pink.webp",
  "systems/n5e/icons/items/inventory/pouch-grain.jpg": "icons/consumables/plants/herb-tied-bundle-dried-yellow.webp",
  "systems/n5e/icons/items/inventory/pouch-neck.jpg": "icons/containers/bags/coinpouch-simple-leather-tan.webp",
  "systems/n5e/icons/items/inventory/pouch-sealed.jpg": "icons/containers/bags/sack-twisted-leather-red.webp",
  "systems/n5e/icons/items/inventory/powder.jpg": "icons/commodities/materials/bowl-powder-blue.webp",
  "systems/n5e/icons/items/inventory/present.jpg": "icons/containers/boxes/box-gift-blue.webp",
  "systems/n5e/icons/items/inventory/ribbon-purple.jpg": "icons/commodities/cloth/ribbon-bow-purple.webp",
  "systems/n5e/icons/items/inventory/ribbon-red.jpg": "icons/commodities/cloth/ribbon-bow-red.webp",
  "systems/n5e/icons/items/inventory/ribbon-teal.jpg": "icons/commodities/cloth/ribbon-bow-teal.webp",
  "systems/n5e/icons/items/inventory/ribbon-yellow.jpg": "icons/commodities/cloth/ribbon-bow-yellow.webp",
  "systems/n5e/icons/items/inventory/ribs.jpg": "icons/commodities/bones/bones-broken-rib-tan.webp",
  "systems/n5e/icons/items/inventory/rope.jpg": "icons/sundries/survival/rope-wrapped-brown.webp",
  "systems/n5e/icons/items/inventory/rune-blue.jpg": "icons/commodities/treasure/token-engraved-spiral-grey.webp",
  "systems/n5e/icons/items/inventory/rune-green.jpg": "icons/commodities/treasure/token-engraved-question-green.webp",
  "systems/n5e/icons/items/inventory/rune-purple.jpg": "icons/commodities/treasure/token-engraved-pickaxe-pink.webp",
  "systems/n5e/icons/items/inventory/rune-red.jpg": "icons/commodities/treasure/token-engraved-eye-red.webp",
  "systems/n5e/icons/items/inventory/runestone-blue.jpg": "icons/commodities/treasure/token-runed-circles-blue.webp",
  "systems/n5e/icons/items/inventory/runestone-carved.jpg": "icons/commodities/treasure/token-runed-os-grey.webp",
  "systems/n5e/icons/items/inventory/runestone-dwarven.jpg": "icons/commodities/treasure/token-engraved-blue.webp",
  "systems/n5e/icons/items/inventory/runestone-green.jpg": "icons/commodities/treasure/token-runed-circle-green.webp",
  "systems/n5e/icons/items/inventory/runestone-pocked.jpg": "icons/commodities/treasure/token-runed-spiral-grey.webp",
  "systems/n5e/icons/items/inventory/runestone-purple.jpg": "icons/commodities/treasure/token-engraved-pickaxe-pink.webp",
  "systems/n5e/icons/items/inventory/runestone-tan.jpg": "icons/commodities/treasure/token-runed-circles-grey.webp",
  "systems/n5e/icons/items/inventory/rune-yellow.jpg": "icons/commodities/treasure/token-runed-fehu-gold.webp",
  "systems/n5e/icons/items/inventory/sack.jpg": "icons/containers/bags/sack-simple-leather-tan.webp",
  "systems/n5e/icons/items/inventory/satchel.jpg": "icons/containers/bags/case-leather-tan.webp",
  "systems/n5e/icons/items/inventory/satchel-leather.jpg": "icons/containers/bags/pack-simple-leather-tan.webp",
  "systems/n5e/icons/items/inventory/scorpion.jpg": "icons/environment/creatures/bug-scorpion-silver.webp",
  "systems/n5e/icons/items/inventory/scroll-blank.jpg": "icons/sundries/scrolls/scroll-worn-beige.webp",
  "systems/n5e/icons/items/inventory/scroll-cursed.jpg": "icons/sundries/scrolls/scroll-plain-red.webp",
  "systems/n5e/icons/items/inventory/scroll-druid.jpg": "icons/sundries/scrolls/scroll-bound-gold-brown.webp",
  "systems/n5e/icons/items/inventory/scroll-magic.jpg": "icons/sundries/scrolls/scroll-bound-sealed-red-green.webp",
  "systems/n5e/icons/items/inventory/scroll-secret.jpg": "icons/sundries/scrolls/scroll-runed-brown-purple.webp",
  "systems/n5e/icons/items/inventory/seeds.jpg": "icons/consumables/food/berries-ration-round-red.webp",
  "systems/n5e/icons/items/inventory/shard-blue.jpg": "icons/commodities/gems/gem-fragments-turquoise.webp",
  "systems/n5e/icons/items/inventory/shard-green.jpg": "icons/commodities/gems/gem-fragments-green.webp",
  "systems/n5e/icons/items/inventory/shard-red.jpg": "icons/commodities/gems/gem-fragmented-pink.webp",
  "systems/n5e/icons/items/inventory/shell.jpg": "icons/commodities/biological/shell-ribbed-grey.webp",
  "systems/n5e/icons/items/inventory/shell-blue.jpg": "icons/environment/creatures/shell-conch-blue.webp",
  "systems/n5e/icons/items/inventory/shell-green.jpg": "icons/environment/creatures/shell-conch-green.webp",
  "systems/n5e/icons/items/inventory/shell-purple.jpg": "icons/environment/creatures/shell-conch-purple.webp",
  "systems/n5e/icons/items/inventory/sickle.jpg": "icons/weapons/sickles/sickle-curved.webp",
  "systems/n5e/icons/items/inventory/skull-alien.jpg": "icons/commodities/bones/skull-weird.webp",
  "systems/n5e/icons/items/inventory/skull-bird.jpg": "icons/commodities/bones/skull-bird-tan.webp",
  "systems/n5e/icons/items/inventory/slime-blue.jpg": "icons/commodities/materials/slime-blue.webp",
  "systems/n5e/icons/items/inventory/slime-green.jpg": "icons/commodities/materials/slime-green.webp",
  "systems/n5e/icons/items/inventory/slime-purple.jpg": "icons/commodities/materials/slime-purple.webp",
  "systems/n5e/icons/items/inventory/slime-red.jpg": "icons/commodities/materials/slime-red.webp",
  "systems/n5e/icons/items/inventory/slime-yellow.jpg": "icons/commodities/materials/slime-yellow.webp",
  "systems/n5e/icons/items/inventory/soap.jpg": "icons/sundries/survival/soap.webp",
  "systems/n5e/icons/items/inventory/soup.jpg": "icons/consumables/food/bowl-stew-brown.webp",
  "systems/n5e/icons/items/inventory/spices.jpg": "icons/commodities/materials/powder-red-green-yellow.webp",
  "systems/n5e/icons/items/inventory/spine.jpg": "icons/commodities/bones/bone-spine-grey.webp",
  "systems/n5e/icons/items/inventory/stake.jpg": "icons/sundries/survival/stake-rough-simple-brown.webp",
  "systems/n5e/icons/items/inventory/stakes.jpg": "icons/sundries/survival/stake-rough-heavy-brown.webp",
  "systems/n5e/icons/items/inventory/stopwatch.jpg": "icons/tools/navigation/watch-simple-blue.webp",
  "systems/n5e/icons/items/inventory/tabard-blue.jpg": "icons/sundries/flags/banner-blue.webp",
  "systems/n5e/icons/items/inventory/tabard-green.jpg": "icons/sundries/flags/banner-green.webp",
  "systems/n5e/icons/items/inventory/tabard-purple.jpg": "icons/sundries/flags/banner-purple.webp",
  "systems/n5e/icons/items/inventory/tabard-red.jpg": "icons/sundries/flags/banner-pink.webp",
  "systems/n5e/icons/items/inventory/tabard-yellow.jpg": "icons/sundries/flags/banner-yellow.webp",
  "systems/n5e/icons/items/inventory/tankard-empty.jpg": "icons/containers/kitchenware/mug-steel-wood-brown.webp",
  "systems/n5e/icons/items/inventory/tankard-full.jpg": "icons/consumables/drinks/alcohol-beer-stein-wooden-brown.webp",
  "systems/n5e/icons/items/inventory/tassle-blue.jpg": "icons/commodities/materials/hair-tuft-blue.webp",
  "systems/n5e/icons/items/inventory/tassle-orange.jpg": "icons/commodities/materials/hair-tuft-gold.webp",
  "systems/n5e/icons/items/inventory/tassle-white.jpg": "icons/commodities/materials/hair-tuft-grey.webp",
  "systems/n5e/icons/items/inventory/teeth.jpg": "icons/sundries/misc/teeth-dentures.webp",
  "systems/n5e/icons/items/inventory/tool-hook.jpg": "icons/weapons/sickles/sickle-hooked-wood.webp",
  "systems/n5e/icons/items/inventory/tooth.jpg": "icons/commodities/bones/tooth-molar-white.webp",
  "systems/n5e/icons/items/inventory/torch.jpg": "icons/sundries/lights/torch-black.webp",
  "systems/n5e/icons/items/inventory/trinket-blue.jpg": "icons/commodities/materials/orb-tassle-blue-yellow.webp",
  "systems/n5e/icons/items/inventory/trinket-carving.jpg": "icons/commodities/treasure/statue-carved-figurehead.webp",
  "systems/n5e/icons/items/inventory/trinket-fur-brown.jpg": "icons/commodities/materials/hair-tuft-brown.webp",
  "systems/n5e/icons/items/inventory/trinket-fur-white.jpg": "icons/commodities/materials/hair-tuft-white.webp",
  "systems/n5e/icons/items/inventory/trinket-loop.jpg": "icons/commodities/treasure/broach-jewel-gold-blue.webp",
  "systems/n5e/icons/items/inventory/trophy.jpg": "icons/commodities/treasure/statue-gold-laurel-wreath.webp",
  "systems/n5e/icons/items/inventory/twig.jpg": "icons/commodities/treasure/token-worn-yang-brown.webp",
  "systems/n5e/icons/items/inventory/urn.jpg": "icons/containers/kitchenware/vase-clay-cracked-grey.webp",
  "systems/n5e/icons/items/inventory/vase-blue.jpg": "icons/consumables/drinks/wine-amphora-clay-blue.webp",
  "systems/n5e/icons/items/inventory/vase-brown.jpg": "icons/containers/kitchenware/jug-clay-brown-sealed.webp",
  "systems/n5e/icons/items/inventory/vase-red.jpg": "icons/consumables/drinks/wine-amphora-clay-red.webp",
  "systems/n5e/icons/items/inventory/wand-star.jpg": "icons/weapons/wands/wand-star-gold.webp",
  "systems/n5e/icons/items/inventory/waterskin.jpg": "icons/sundries/survival/wetskin-leather-purple.webp",
  "systems/n5e/icons/items/inventory/webs.jpg": "icons/commodities/materials/material-webbing.webp",
  "systems/n5e/icons/items/inventory/whetstone.jpg": "icons/commodities/stone/geode-raw-tan.webp",
  "systems/n5e/icons/items/inventory/wood.jpg": "icons/commodities/wood/log-stack-maple-brown.webp",
  "systems/n5e/icons/items/jewelry/amulet-blue.jpg": "icons/equipment/neck/pendant-bronze-gem-blue.webp",
  "systems/n5e/icons/items/jewelry/amulet-tribal.jpg": "icons/equipment/neck/necklace-hook-brown.webp",
  "systems/n5e/icons/items/jewelry/earring-hoop.jpg": "icons/equipment/finger/ring-horseshoe-gold-red.webp",
  "systems/n5e/icons/items/jewelry/necklace-teeth.jpg": "icons/equipment/neck/collar-carved-bone-teeth-ring.webp",
  "systems/n5e/icons/items/jewelry/pendant-blue.jpg": "icons/equipment/neck/pendant-faceted-blue.webp",
  "systems/n5e/icons/items/jewelry/pendant-green.jpg": "icons/equipment/neck/pendant-faceted-green.webp",
  "systems/n5e/icons/items/jewelry/pendant-red.jpg": "icons/equipment/neck/pendant-faceted-red.webp",
  "systems/n5e/icons/items/jewelry/ring-eye.jpg": "icons/equipment/finger/ring-eye-silver-green.webp",
  "systems/n5e/icons/items/jewelry/ring-gold.jpg": "icons/equipment/finger/ring-cabochon-notched-gold-green.webp",
  "systems/n5e/icons/items/jewelry/ring-iron.jpg": "icons/equipment/finger/ring-band-engraved-scrolls-silver.webp",
  "systems/n5e/icons/items/jewelry/ring-orange.jpg": "icons/equipment/finger/ring-cabochon-gold-orange.webp",
  "systems/n5e/icons/items/jewelry/ring-orb.jpg": "icons/equipment/finger/ring-cabochon-gold-purple.webp",
  "systems/n5e/icons/items/jewelry/ring-purple.jpg": "icons/equipment/finger/ring-faceted-gold-purple.webp",
  "systems/n5e/icons/items/jewelry/ring-red.jpg": "icons/equipment/finger/ring-inlay-red.webp",
  "systems/n5e/icons/items/jewelry/ring-ruby.jpg": "icons/equipment/finger/ring-faceted-silver-orange.webp",
  "systems/n5e/icons/items/jewelry/ring-silver.jpg": "icons/equipment/finger/ring-cabochon-silver-gold-red.webp",
  "systems/n5e/icons/items/potions/grand-blue.jpg": "icons/consumables/potions/bottle-round-corked-blue.webp",
  "systems/n5e/icons/items/potions/grand-green.jpg": "icons/consumables/potions/bottle-round-corked-green.webp",
  "systems/n5e/icons/items/potions/grand-red.jpg": "icons/consumables/potions/bottle-round-corked-red.webp",
  "systems/n5e/icons/items/potions/grand-violet.jpg": "icons/consumables/potions/bottle-round-corked-pink.webp",
  "systems/n5e/icons/items/potions/grand-yellow.jpg": "icons/consumables/potions/bottle-round-corked-yellow.webp",
  "systems/n5e/icons/items/potions/magic-blue.jpg": "icons/consumables/potions/potion-flask-corked-blue.webp",
  "systems/n5e/icons/items/potions/magic-green.jpg": "icons/consumables/potions/potion-flask-corked-capped-green.webp",
  "systems/n5e/icons/items/potions/magic-purple.jpg": "icons/consumables/potions/potion-flask-corled-pink-red.webp",
  "systems/n5e/icons/items/potions/magic-red.jpg": "icons/consumables/potions/potion-flask-stopped-red.webp",
  "systems/n5e/icons/items/potions/magic-yellow.jpg": "icons/consumables/potions/potion-flask-corked-orange.webp",
  "systems/n5e/icons/items/potions/major-blue.jpg": "icons/consumables/potions/bottle-bulb-corked-labeled-blue.webp",
  "systems/n5e/icons/items/potions/major-empty.jpg": "icons/consumables/potions/bottle-bulb-empty-glass.webp",
  "systems/n5e/icons/items/potions/major-green.jpg": "icons/consumables/potions/bottle-bulb-corked-green.webp",
  "systems/n5e/icons/items/potions/major-red.jpg": "icons/consumables/potions/bottle-bulb-corked-glowing-red.webp",
  "systems/n5e/icons/items/potions/minor-blue.jpg": "icons/consumables/potions/potion-tube-corked-blue.webp",
  "systems/n5e/icons/items/potions/minor-empty.jpg": "icons/consumables/potions/bottle-round-empty-glass.webp",
  "systems/n5e/icons/items/potions/minor-green.jpg": "icons/consumables/potions/potion-tube-corked-bubbling-green.webp",
  "systems/n5e/icons/items/potions/minor-red.jpg": "icons/consumables/potions/potion-tube-corked-red.webp",
  "systems/n5e/icons/items/potions/unique-1.jpg": "icons/consumables/potions/bottle-conical-corked-labeled-shell-cyan.webp",
  "systems/n5e/icons/items/potions/unique-2.jpg": "icons/consumables/potions/bottle-bulb-corked-purple.webp",
  "systems/n5e/icons/items/potions/unique-3.jpg": "icons/consumables/potions/bottle-circular-corked-labeled-green.webp",
  "systems/n5e/icons/items/potions/unique-4.jpg": "icons/consumables/potions/potion-bottle-corked-labeled-green.webp",
  "systems/n5e/icons/items/potions/unique-5.jpg": "icons/consumables/potions/potion-flask-corked-labeled-pink.webp",
  "systems/n5e/icons/items/potions/unique-6.jpg": "icons/consumables/potions/potion-bottle-corked-fancy-orange.webp",
  "systems/n5e/icons/items/potions/unique-7.jpg": "icons/consumables/potions/potion-bottle-skull-label-poison-teal.webp",
  "systems/n5e/icons/items/potions/unique-8.jpg": "icons/consumables/potions/potion-vial-corked-labeled-purple.webp",
  "systems/n5e/icons/items/potions/unique-9.jpg": "icons/consumables/potions/potion-tube-corked-glowing-red.webp",
  "systems/n5e/icons/items/potions/unique-10.jpg": "icons/consumables/potions/potion-tube-corked-bat-gold-red.webp",
  "systems/n5e/icons/items/weapons/arrows.jpg": "icons/containers/ammunition/arrows-quiver-black.webp",
  "systems/n5e/icons/items/weapons/axe-crescent.jpg": "icons/weapons/polearms/halberd-curved-steel.webp",
  "systems/n5e/icons/items/weapons/axe-hell.png": "icons/weapons/axes/axe-battle-eyes-red.webp",
  "systems/n5e/icons/items/weapons/axe-wood.jpg": "icons/weapons/axes/axe-double-chopping-black.webp",
  "systems/n5e/icons/items/weapons/battleaxe.png": "icons/weapons/polearms/halberd-crescent-engraved-steel.webp",
  "systems/n5e/icons/items/weapons/bolt.png": "icons/weapons/ammunition/arrows-bodkin-yellow-red.webp",
  "systems/n5e/icons/items/weapons/bow-composite.jpg": "icons/weapons/bows/longbow-gold-pink.webp",
  "systems/n5e/icons/items/weapons/bow-hunting.jpg": "icons/weapons/bows/longbow-recurve-leather-red.webp",
  "systems/n5e/icons/items/weapons/bow-long.jpg": "icons/weapons/bows/longbow-leather-green.webp",
  "systems/n5e/icons/items/weapons/bow-short.jpg": "icons/weapons/bows/shortbow-recurve.webp",
  "systems/n5e/icons/items/weapons/bullet.jpg": "icons/skills/ranged/bullets-triple-ball-yellow.webp",
  "systems/n5e/icons/items/weapons/club-horns.jpg": "icons/weapons/maces/mace-skull-ram.webp",
  "systems/n5e/icons/items/weapons/club-spikes.jpg": "icons/weapons/clubs/club-simple-barbed.webp",
  "systems/n5e/icons/items/weapons/crossbow-heavy.jpg": "icons/weapons/crossbows/crossbow-blue.webp",
  "systems/n5e/icons/items/weapons/crossbow-light.jpg": "icons/weapons/crossbows/crossbow-simple-brown.webp",
  "systems/n5e/icons/items/weapons/crossbow-repeating.jpg": "icons/weapons/crossbows/handcrossbow-green.webp",
  "systems/n5e/icons/items/weapons/crystal.png": "icons/commodities/gems/gem-rough-navette-yellow-green.webp",
  "systems/n5e/icons/items/weapons/dagger.jpg": "icons/weapons/daggers/dagger-jeweled-purple.webp",
  "systems/n5e/icons/items/weapons/dagger-fire.jpg": "icons/weapons/daggers/dagger-notched-blackened.webp",
  "systems/n5e/icons/items/weapons/dagger-jagged.jpg": "icons/weapons/daggers/dagger-crooked-red.webp",
  "systems/n5e/icons/items/weapons/dagger-leaf.jpg": "icons/weapons/swords/shortsword-broad-engraved.webp",
  "systems/n5e/icons/items/weapons/dart.png": "icons/weapons/ammunition/arrows-war-red.webp",
  "systems/n5e/icons/items/weapons/glaive.png": "icons/weapons/polearms/halberd-crescent-glowing.webp",
  "systems/n5e/icons/items/weapons/greataxe.jpg": "icons/weapons/axes/axe-double.webp",
  "systems/n5e/icons/items/weapons/greatclub.png": "icons/weapons/maces/mace-spiked-steel-grey.webp",
  "systems/n5e/icons/items/weapons/greatsword.png": "icons/weapons/swords/greatsword-guard-gold-worn.webp",
  "systems/n5e/icons/items/weapons/hammer-light.jpg": "icons/weapons/hammers/hammer-war-spiked.webp",
  "systems/n5e/icons/items/weapons/hammer-maul.jpg": "icons/weapons/hammers/hammer-double-engraved-gold.webp",
  "systems/n5e/icons/items/weapons/hammer-war.jpg": "icons/weapons/hammers/hammer-war-rounding.webp",
  "systems/n5e/icons/items/weapons/hammer-wood.jpg": "icons/weapons/hammers/hammer-double-wood-banded.webp",
  "systems/n5e/icons/items/weapons/handaxe.jpg": "icons/weapons/axes/axe-broad-black.webp",
  "systems/n5e/icons/items/weapons/hatchet.jpg": "icons/weapons/axes/axe-battle-worn-black.webp",
  "systems/n5e/icons/items/weapons/maul.jpg": "icons/weapons/maces/mace-spiked-wood-grey.webp",
  "systems/n5e/icons/items/weapons/morningstar.jpg": "icons/weapons/maces/mace-round-spiked-black.webp",
  "systems/n5e/icons/items/weapons/net.jpg": "icons/tools/fishing/net-simple-tan.webp",
  "systems/n5e/icons/items/weapons/pick.jpg": "icons/weapons/axes/pickaxe-double-brown.webp",
  "systems/n5e/icons/items/weapons/pike.jpg": "icons/weapons/polearms/halberd-crescent-stone-worn.webp",
  "systems/n5e/icons/items/weapons/quarterstaff.jpg": "icons/weapons/staves/staff-simple-gold.webp",
  "systems/n5e/icons/items/weapons/rod.jpg": "icons/weapons/polearms/spear-hooked-blue.webp",
  "systems/n5e/icons/items/weapons/sickle.jpg": "icons/weapons/sickles/sickle-curved.webp",
  "systems/n5e/icons/items/weapons/sling.jpg": "icons/weapons/slings/slingshot-wood.webp",
  "systems/n5e/icons/items/weapons/spear.jpg": "icons/weapons/polearms/spear-flared-worn-grey.webp",
  "systems/n5e/icons/items/weapons/staff.png": "icons/weapons/staves/staff-simple-brown.webp",
  "systems/n5e/icons/items/weapons/staff-blue.jpg": "icons/weapons/staves/staff-ornate-engraved-blue.webp",
  "systems/n5e/icons/items/weapons/staff-green.jpg": "icons/weapons/staves/staff-simple-green.webp",
  "systems/n5e/icons/items/weapons/staff-red.jpg": "icons/weapons/staves/staff-engraved-red.webp",
  "systems/n5e/icons/items/weapons/staff-skull.jpg": "icons/weapons/staves/staff-skull-brown.webp",
  "systems/n5e/icons/items/weapons/staff-vine.jpg": "icons/weapons/staves/staff-simple-spiral-green.webp",
  "systems/n5e/icons/items/weapons/sword-arcane.jpg": "icons/weapons/swords/sword-guard-flanged-purple.webp",
  "systems/n5e/icons/items/weapons/sword-bastard.jpg": "icons/weapons/swords/greatsword-crossguard-embossed-gold.webp",
  "systems/n5e/icons/items/weapons/sword-curved.jpg": "icons/weapons/swords/sword-katana.webp",
  "systems/n5e/icons/items/weapons/sword-death.jpg": "icons/weapons/swords/sword-guard-serrated.webp",
  "systems/n5e/icons/items/weapons/sword-fire.jpg": "icons/weapons/swords/sword-guard-red.webp",
  "systems/n5e/icons/items/weapons/sword-great.jpg": "icons/weapons/swords/greatsword-guard-gem-blue.webp",
  "systems/n5e/icons/items/weapons/sword-ice.jpg": "icons/weapons/swords/greatsword-flamberge.webp",
  "systems/n5e/icons/items/weapons/sword-long.jpg": "icons/weapons/swords/greatsword-crossguard-steel.webp",
  "systems/n5e/icons/items/weapons/sword-short.jpg": "icons/weapons/swords/sword-guard-brown.webp",
  "systems/n5e/icons/items/weapons/throwingknives.jpg": "icons/weapons/thrown/dagger-simple.webp",
  "systems/n5e/icons/items/weapons/warhammer.png": "icons/weapons/hammers/hammer-drilling-spiked.webp",
  "systems/n5e/icons/items/weapons/whip.png": "icons/weapons/misc/whip-red-yellow.webp",
  "systems/n5e/icons/skills/affliction_01.jpg": "icons/esoteric/water/heart-ice-freeze.webp",
  "systems/n5e/icons/skills/affliction_02.jpg": "icons/esoteric/time/hourglass-yellow-green.webp",
  "systems/n5e/icons/skills/affliction_03.jpg": "icons/esoteric/death/projectile-skull-flaming-green.webp",
  "systems/n5e/icons/skills/affliction_04.jpg": "icons/skills/melee/strike-scythe-fire-green.webp",
  "systems/n5e/icons/skills/affliction_05.jpg": "icons/sundries/lights/candles-lit-red-evil.webp",
  "systems/n5e/icons/skills/affliction_06.jpg": "icons/skills/melee/weapons-crossed-swords-teal.webp",
  "systems/n5e/icons/skills/affliction_07.jpg": "icons/esoteric/death/undead-zombie-grave-green.webp",
  "systems/n5e/icons/skills/affliction_08.jpg": "icons/esoteric/death/undead-ghost-scream-teal.webp",
  "systems/n5e/icons/skills/affliction_09.jpg": "icons/skills/wounds/illness-disease-glowing-green.webp",
  "systems/n5e/icons/skills/affliction_10.jpg": "icons/skills/wounds/blood-cells-disease-green.webp",
  "systems/n5e/icons/skills/affliction_11.jpg": "icons/esoteric/earth/orb-stone-smoke-teal.webp",
  "systems/n5e/icons/skills/affliction_12.jpg": "icons/esoteric/acid/projectile-stream-bubbles.webp",
  "systems/n5e/icons/skills/affliction_13.jpg": "icons/esoteric/acid/pouring-gas-smoke-liquid.webp",
  "systems/n5e/icons/skills/affliction_14.jpg": "icons/esoteric/acid/projectile-smoke-glowing.webp",
  "systems/n5e/icons/skills/affliction_15.jpg": "icons/esoteric/acid/dissolve-arm-flesh.webp",
  "systems/n5e/icons/skills/affliction_16.jpg": "icons/esoteric/acid/projectile-glowing-bubbles.webp",
  "systems/n5e/icons/skills/affliction_17.jpg": "icons/esoteric/death/skull-poison-green.webp",
  "systems/n5e/icons/skills/affliction_18.jpg": "icons/weapons/daggers/dagger-poisoned-curved-green.webp",
  "systems/n5e/icons/skills/affliction_19.jpg": "icons/esoteric/acid/projectiles-trio-salvo.webp",
  "systems/n5e/icons/skills/affliction_20.jpg": "icons/esoteric/acid/projectile-faceted-glob.webp",
  "systems/n5e/icons/skills/affliction_21.jpg": "icons/skills/toxins/poison-bottle-corked-fire-green.webp",
  "systems/n5e/icons/skills/affliction_22.jpg": "icons/esoteric/unholy/orb-smoking-green.webp",
  "systems/n5e/icons/skills/affliction_23.jpg": "icons/skills/melee/strike-dagger-poison-green.webp",
  "systems/n5e/icons/skills/affliction_24.jpg": "icons/skills/toxins/cup-goblet-poisoned-spilled.webp",
  "systems/n5e/icons/skills/affliction_25.jpg": "icons/esoteric/acid/dissolve-drip-droplet-smoke.webp",
  "systems/n5e/icons/skills/affliction_26.jpg": "icons/esoteric/unholy/projectile-fireball-green.webp",
  "systems/n5e/icons/skills/armor_01.jpg": "icons/skills/movement/feet-winged-boots-brown.webp",
  "systems/n5e/icons/skills/arrow_01.jpg": "icons/skills/ranged/arrow-flying-broadhead-metal.webp",
  "systems/n5e/icons/skills/arrow_02.jpg": "icons/weapons/ammunition/arrow-head-war-flight.webp",
  "systems/n5e/icons/skills/arrow_03.jpg": "icons/esoteric/fire/projectile-arrow-fire-red-yellow.webp",
  "systems/n5e/icons/skills/arrow_04.jpg": "icons/skills/ranged/arrows-flying-salvo-blue-light.webp",
  "systems/n5e/icons/skills/arrow_05.jpg": "icons/skills/ranged/arrows-flying-salvo-blue.webp",
  "systems/n5e/icons/skills/arrow_06.jpg": "icons/skills/ranged/arrow-flying-white-blue.webp",
  "systems/n5e/icons/skills/arrow_07.jpg": "icons/weapons/ammunition/arrow-head-war.webp",
  "systems/n5e/icons/skills/arrow_08.jpg": "icons/skills/ranged/arrow-flying-poisoned-green.webp",
  "systems/n5e/icons/skills/arrow_09.jpg": "icons/esoteric/water/projectile-arrow-cold-fire-blue.webp",
  "systems/n5e/icons/skills/arrow_10.jpg": "icons/esoteric/fire/projectile-arrow-fire-orange-yellow.webp",
  "systems/n5e/icons/skills/arrow_11.jpg": "icons/esoteric/fire/projectile-arrow-fire-purple.webp",
  "systems/n5e/icons/skills/arrow_12.jpg": "icons/skills/ranged/target-bullseye-arrow-green.webp",
  "systems/n5e/icons/skills/arrow_13.jpg": "icons/skills/melee/spear-tips-triple-orange.webp",
  "systems/n5e/icons/skills/arrow_15.jpg": "icons/skills/ranged/arrow-flying-ornate-gold.webp",
  "systems/n5e/icons/skills/arrow_16.jpg": "icons/skills/ranged/arrows-flying-salvo-yellow.webp",
  "systems/n5e/icons/skills/arrow_17.jpg": "icons/skills/ranged/arrows-flying-salvo-purple.webp",
  "systems/n5e/icons/skills/arrow_18.jpg": "icons/weapons/polearms/spear-ice-crystal-blue.webp",
  "systems/n5e/icons/skills/beast_01.jpg": "icons/creatures/abilities/cougar-pounce-stalk-black.webp",
  "systems/n5e/icons/skills/beast_02.jpg": "icons/skills/wounds/bone-broken-tooth-fang-red.webp",
  "systems/n5e/icons/skills/beast_03.jpg": "icons/creatures/abilities/fang-tooth-venomous.webp",
  "systems/n5e/icons/skills/beast_04.jpg": "icons/commodities/biological/organ-brain-pink.webp",
  "systems/n5e/icons/skills/blood_01.jpg": "icons/commodities/gems/gem-rough-square-red.webp",
  "systems/n5e/icons/skills/blood_02.jpg": "icons/esoteric/death/undead-skeleton-deformed-red.webp",
  "systems/n5e/icons/skills/blood_03.jpg": "icons/skills/wounds/blood-spurt-spray-red.webp",
  "systems/n5e/icons/skills/blood_04.jpg": "icons/esoteric/life/heart-glowing-red.webp",
  "systems/n5e/icons/skills/blood_05.jpg": "icons/esoteric/unholy/projectile-helix-blood-red.webp",
  "systems/n5e/icons/skills/blood_06.jpg": "icons/skills/melee/blood-slash-foam-red.webp",
  "systems/n5e/icons/skills/blood_07.jpg": "icons/creatures/abilities/mouth-teeth-long-red.webp",
  "systems/n5e/icons/skills/blood_08.jpg": "icons/skills/wounds/injury-pain-impaled-hand-blood.webp",
  "systems/n5e/icons/skills/blood_09.jpg": "icons/skills/wounds/injury-hand-blood-red.webp",
  "systems/n5e/icons/skills/blood_10.jpg": "icons/esoteric/death/skull-horned-goat-pentagram-red.webp",
  "systems/n5e/icons/skills/blood_11.jpg": "icons/skills/melee/unarmed-punch-fist-yellow-red.webp",
  "systems/n5e/icons/skills/blood_12.jpg": "icons/creatures/reptiles/lizard-mouth-glowing-red.webp",
  "systems/n5e/icons/skills/blood_13.jpg": "icons/esoteric/life/heart-shadow-red.webp",
  "systems/n5e/icons/skills/blue_01.jpg": "icons/esoteric/defensive/shield-barrier-blades-teal.webp",
  "systems/n5e/icons/skills/blue_02.jpg": "icons/creatures/abilities/wing-batlike-white-blue.webp",
  "systems/n5e/icons/skills/blue_03.jpg": "icons/skills/targeting/target-strike-triple-blue.webp",
  "systems/n5e/icons/skills/blue_04.jpg": "icons/esoteric/water/snowflake-ice-snow-white.webp",
  "systems/n5e/icons/skills/blue_05.jpg": "icons/creatures/webs/webthin-blue.webp",
  "systems/n5e/icons/skills/blue_06.jpg": "icons/esoteric/air/air-wave-gust-blue.webp",
  "systems/n5e/icons/skills/blue_07.jpg": "icons/environment/settlement/stone-stairs.webp",
  "systems/n5e/icons/skills/blue_08.jpg": "icons/esoteric/water/orb-ice-glow.webp",
  "systems/n5e/icons/skills/blue_09.jpg": "icons/esoteric/nature/tree-spirit-blue.webp",
  "systems/n5e/icons/skills/blue_10.jpg": "icons/skills/melee/weapons-crossed-swords-white-blue.webp",
  "systems/n5e/icons/skills/blue_11.jpg": "icons/esoteric/water/barrier-ice-crystal-wall-jagged.webp",
  "systems/n5e/icons/skills/blue_12.jpg": "icons/esoteric/water/projectile-water-ice-orb.webp",
  "systems/n5e/icons/skills/blue_13.jpg": "icons/esoteric/air/wind-tornado-wall-blue.webp",
  "systems/n5e/icons/skills/blue_14.jpg": "icons/weapons/guns/arrowhead-glowing-blue.webp",
  "systems/n5e/icons/skills/blue_15.jpg": "icons/esoteric/air/wind-vortex-swirl-blue.webp",
  "systems/n5e/icons/skills/blue_16.jpg": "icons/esoteric/water/orb-ice-web.webp",
  "systems/n5e/icons/skills/blue_17.jpg": "icons/creatures/eyes/lizard-single-slit-blue.webp",
  "systems/n5e/icons/skills/blue_18.jpg": "icons/esoteric/defensive/shield-barrier-glowing-blue.webp",
  "systems/n5e/icons/skills/blue_19.jpg": "icons/esoteric/water/projectile-ice-chunks-salvo.webp",
  "systems/n5e/icons/skills/blue_20.jpg": "icons/creatures/slimes/slime-movement-swirling-blue.webp",
  "systems/n5e/icons/skills/blue_21.jpg": "icons/esoteric/lightning/bolt-strike-blue.webp",
  "systems/n5e/icons/skills/blue_22.jpg": "icons/esoteric/water/projectile-ice-snowball.webp",
  "systems/n5e/icons/skills/blue_23.jpg": "icons/skills/melee/hand-grip-staff-blue.webp",
  "systems/n5e/icons/skills/blue_24.jpg": "icons/esoteric/water/barrier-ice-crystal-wall-faceted.webp",
  "systems/n5e/icons/skills/blue_25.jpg": "icons/esoteric/water/vortex-water-whirlpool.webp",
  "systems/n5e/icons/skills/blue_26.jpg": "icons/creatures/mystical/humanoid-giant-forest-blue.webp",
  "systems/n5e/icons/skills/blue_27.jpg": "icons/skills/melee/hand-grip-hammer-spiked-blue.webp",
  "systems/n5e/icons/skills/blue_28.jpg": "icons/esoteric/water/strike-ice-blade-axe.webp",
  "systems/n5e/icons/skills/blue_29.jpg": "icons/creatures/mammals/wolf-howl-moon-forest-blue.webp",
  "systems/n5e/icons/skills/blue_30.jpg": "icons/esoteric/water/barrier-ice-crystal-wall-jagged-blue.webp",
  "systems/n5e/icons/skills/blue_31.jpg": "icons/environment/wilderness/cave-entrance-mountain-blue.webp",
  "systems/n5e/icons/skills/blue_32.jpg": "icons/creatures/mystical/humanoid-horned-rider.webp",
  "systems/n5e/icons/skills/blue_33.jpg": "icons/esoteric/water/orb-ice-opaque.webp",
  "systems/n5e/icons/skills/blue_34.jpg": "icons/esoteric/defensive/armor-stone-skin.webp",
  "systems/n5e/icons/skills/blue_35.jpg": "icons/esoteric/control/silhouette-hold-change-blue.webp",
  "systems/n5e/icons/skills/blue_36.jpg": "icons/esoteric/water/pseudopod-swirl-blue.webp",
  "systems/n5e/icons/skills/blue_37.jpg": "icons/creatures/mystical/spirit-undead-masked-blue.webp",
  "systems/n5e/icons/skills/blue_38.jpg": "icons/esoteric/water/tendrils-ice-thorns.webp",
  "systems/n5e/icons/skills/emerald_01.jpg": "icons/esoteric/sonic/explosion-shock-wave-teal.webp",
  "systems/n5e/icons/skills/emerald_02.jpg": "icons/esoteric/water/orb-water-transparent.webp",
  "systems/n5e/icons/skills/emerald_03.jpg": "icons/esoteric/air/wind-tornado-funnel-damage-blue.webp",
  "systems/n5e/icons/skills/emerald_04.jpg": "icons/esoteric/water/barrier-ice-water-cube.webp",
  "systems/n5e/icons/skills/emerald_05.jpg": "icons/environment/creatures/frog-spotted-green.webp",
  "systems/n5e/icons/skills/emerald_06.jpg": "icons/esoteric/sonic/scream-wail-shout-teal.webp",
  "systems/n5e/icons/skills/emerald_07.jpg": "icons/creatures/mammals/humanoid-cat-skulking-teal.webp",
  "systems/n5e/icons/skills/emerald_08.jpg": "icons/esoteric/water/pseudopod-teal.webp",
  "systems/n5e/icons/skills/emerald_09.jpg": "icons/esoteric/unholy/orb-swirling-teal.webp",
  "systems/n5e/icons/skills/emerald_10.jpg": "icons/skills/ranged/arrow-strike-glowing-teal.webp",
  "systems/n5e/icons/skills/emerald_11.jpg": "icons/creatures/eyes/humanoid-single-blue.webp",
  "systems/n5e/icons/skills/fire_01.jpg": "icons/esoteric/fire/blast-jet-stream-splash.webp",
  "systems/n5e/icons/skills/fire_02.jpg": "icons/esoteric/fire/projectile-wave-arrow.webp",
  "systems/n5e/icons/skills/fire_03.jpg": "icons/esoteric/earth/volcano-explosion-lava-yellow.webp",
  "systems/n5e/icons/skills/fire_04.jpg": "icons/esoteric/fire/projectile-fireball-orange-yellow.webp",
  "systems/n5e/icons/skills/fire_05.jpg": "icons/creatures/abilities/dragon-fire-breath-orange.webp",
  "systems/n5e/icons/skills/fire_06.jpg": "icons/esoteric/fire/explosion-embers-orange.webp",
  "systems/n5e/icons/skills/fire_07.jpg": "icons/esoteric/fire/flame-burning-fist-strike.webp",
  "systems/n5e/icons/skills/fire_08.jpg": "icons/esoteric/earth/projectiles-magma-stone-orange.webp",
  "systems/n5e/icons/skills/fire_09.jpg": "icons/esoteric/earth/projectiles-fire-stone-salvo.webp",
  "systems/n5e/icons/skills/fire_10.jpg": "icons/esoteric/fire/projectile-embers-orange.webp",
  "systems/n5e/icons/skills/fire_11.jpg": "icons/esoteric/fire/explosion-mushroom-nuke-orange.webp",
  "systems/n5e/icons/skills/fire_12.jpg": "icons/esoteric/earth/lava-explosion-orange.webp",
  "systems/n5e/icons/skills/fire_13.jpg": "icons/esoteric/fire/projectile-bolt-zigzag-orange.webp",
  "systems/n5e/icons/skills/gray_04.jpg": "icons/skills/melee/strike-sword-stabbed-brown.webp",
  "systems/n5e/icons/skills/gray_05.jpg": "icons/skills/social/theft-pickpocket-bribery-brown.webp",
  "systems/n5e/icons/skills/gray_06.jpg": "icons/environment/settlement/wagon-black.webp",
  "systems/n5e/icons/skills/gray_07.jpg": "icons/commodities/stone/stone-meterorite-glowing-yellow.webp",
  "systems/n5e/icons/skills/gray_08.jpg": "icons/skills/melee/hand-grip-sword-red.webp",
  "systems/n5e/icons/skills/gray_09.jpg": "icons/skills/ranged/shuriken-thrown-sawblade-gray.webp",
  "systems/n5e/icons/skills/gray_10.jpg": "icons/tools/fishing/hook-curved-barbed-steel-white.webp",
  "systems/n5e/icons/skills/green_01.jpg": "icons/weapons/bows/shortbow-recurve-yellow.webp",
  "systems/n5e/icons/skills/green_02.jpg": "icons/creatures/tentacles/tentacles-thing-green.webp",
  "systems/n5e/icons/skills/green_03.jpg": "icons/esoteric/death/skull-trio-badge-purple.webp",
  "systems/n5e/icons/skills/green_04.jpg": "icons/esoteric/nature/leaf-arrowheads-glow-green.webp",
  "systems/n5e/icons/skills/green_05.jpg": "icons/creatures/invertebrates/fly-wasp-mosquito-green.webp",
  "systems/n5e/icons/skills/green_06.jpg": "icons/skills/melee/blade-tip-energy-green.webp",
  "systems/n5e/icons/skills/green_07.jpg": "icons/creatures/abilities/stinger-poison-green.webp",
  "systems/n5e/icons/skills/green_08.jpg": "icons/creatures/slimes/slime-movement-dripping-pseudopods-green.webp",
  "systems/n5e/icons/skills/green_09.jpg": "icons/esoteric/light/orb-beams-green.webp",
  "systems/n5e/icons/skills/green_10.jpg": "icons/consumables/plants/leaf-veins-glowing-green.webp",
  "systems/n5e/icons/skills/green_11.jpg": "icons/esoteric/earth/explosion-lava-stone-green.webp",
  "systems/n5e/icons/skills/green_12.jpg": "icons/esoteric/acid/dissolve-bone-skull.webp",
  "systems/n5e/icons/skills/green_13.jpg": "icons/creatures/mammals/elk-moose-marked-green.webp",
  "systems/n5e/icons/skills/green_14.jpg": "icons/environment/traps/trap-jaw-steel.webp",
  "systems/n5e/icons/skills/green_15.jpg": "icons/esoteric/nature/beam-hand-leaves-green.webp",
  "systems/n5e/icons/skills/green_16.jpg": "icons/esoteric/nature/root-vine-entangle-foot-green.webp",
  "systems/n5e/icons/skills/green_17.jpg": "icons/esoteric/nature/root-vine-thorned-coil-green.webp",
  "systems/n5e/icons/skills/green_18.jpg": "icons/esoteric/nature/stealth-hide-eyes-green.webp",
  "systems/n5e/icons/skills/green_19.jpg": "icons/esoteric/life/cross-worn-green.webp",
  "systems/n5e/icons/skills/green_20.jpg": "icons/esoteric/nature/trap-spikes-thorns-green.webp",
  "systems/n5e/icons/skills/green_21.jpg": "icons/creatures/reptiles/serpent-horned-green.webp",
  "systems/n5e/icons/skills/green_22.jpg": "icons/esoteric/control/sihouette-hold-beam-green.webp",
  "systems/n5e/icons/skills/green_23.jpg": "icons/creatures/invertebrates/spider-beetle-runed-green.webp",
  "systems/n5e/icons/skills/green_24.jpg": "icons/esoteric/nature/leaf-rune-glow-green.webp",
  "systems/n5e/icons/skills/green_25.jpg": "icons/esoteric/acid/dissolve-bone-ribs-skull.webp",
  "systems/n5e/icons/skills/green_26.jpg": "icons/esoteric/nature/tree-spirit-green.webp",
  "systems/n5e/icons/skills/green_27.jpg": "icons/esoteric/control/encase-creature-humanoid-hold.webp",
  "systems/n5e/icons/skills/green_28.jpg": "icons/creatures/slimes/slime-movement-pseudopod-green.webp",
  "systems/n5e/icons/skills/green_29.jpg": "icons/creatures/slimes/slime-movment-dripping-green.webp",
  "systems/n5e/icons/skills/green_30.jpg": "icons/creatures/eyes/slime-stalk-green.webp",
  "systems/n5e/icons/skills/green_31.jpg": "icons/esoteric/nature/root-vine-barrier-wall-brown.webp",
  "systems/n5e/icons/skills/green_32.jpg": "icons/consumables/fruit/apple-red-tree-green.webp",
  "systems/n5e/icons/skills/ice_01.jpg": "icons/esoteric/water/projectile-icecicle.webp",
  "systems/n5e/icons/skills/ice_02.jpg": "icons/esoteric/water/projectile-icecicles-salvo.webp",
  "systems/n5e/icons/skills/ice_03.jpg": "icons/esoteric/water/ice-crystal-white.webp",
  "systems/n5e/icons/skills/ice_05.jpg": "icons/esoteric/water/water-iceberg-bubbles.webp",
  "systems/n5e/icons/skills/ice_06.jpg": "icons/esoteric/water/projectile-ice-teardrops-salvo.webp",
  "systems/n5e/icons/skills/ice_07.jpg": "icons/esoteric/water/projectile-ice-shard.webp",
  "systems/n5e/icons/skills/ice_08.jpg": "icons/esoteric/water/tendrils-ice-growth.webp",
  "systems/n5e/icons/skills/ice_09.jpg": "icons/esoteric/water/projectile-ice-chunk-blue.webp",
  "systems/n5e/icons/skills/ice_10.jpg": "icons/skills/melee/unarmed-punch-fist-blue.webp",
  "systems/n5e/icons/skills/ice_11.jpg": "icons/creatures/abilities/dragon-ice-breath-blue.webp",
  "systems/n5e/icons/skills/ice_12.jpg": "icons/esoteric/water/strike-ice-blades.webp",
  "systems/n5e/icons/skills/ice_13.jpg": "icons/esoteric/water/barrier-ice-shield.webp",
  "systems/n5e/icons/skills/ice_14.jpg": "icons/esoteric/water/strike-ice-blade-fang.webp",
  "systems/n5e/icons/skills/ice_15.jpg": "icons/esoteric/control/debuff-chains-shackles-movement-blue.webp",
  "systems/n5e/icons/skills/ice_16.jpg": "icons/esoteric/water/water-hand.webp",
  "systems/n5e/icons/skills/ice_17.jpg": "icons/esoteric/death/skull-horned-worn-fire-blue.webp",
  "systems/n5e/icons/skills/light_01.jpg": "icons/esoteric/perception/third-eye-blue-red.webp",
  "systems/n5e/icons/skills/light_02.jpg": "icons/creatures/eyes/human-single-blue.webp",
  "systems/n5e/icons/skills/light_03.jpg": "icons/esoteric/light/explosion-star-glow-blue-purple.webp",
  "systems/n5e/icons/skills/light_04.jpg": "icons/esoteric/life/ankh-gold-blue.webp",
  "systems/n5e/icons/skills/light_05.jpg": "icons/skills/melee/weapons-crossed-swords-yellow-teal.webp",
  "systems/n5e/icons/skills/light_06.jpg": "icons/esoteric/symbols/cog-shield-white-blue.webp",
  "systems/n5e/icons/skills/light_07.jpg": "icons/commodities/currency/coin-engraved-sun-smile-copper.webp",
  "systems/n5e/icons/skills/light_08.jpg": "icons/esoteric/light/hand-sparks-smoke-teal.webp",
  "systems/n5e/icons/skills/light_09.jpg": "icons/skills/melee/strike-hammer-destructive-blue.webp",
  "systems/n5e/icons/skills/light_10.jpg": "icons/esoteric/light/orbs-hand-gray.webp",
  "systems/n5e/icons/skills/mech_4.jpg": "icons/tools/navigation/watch-simple-blue.webp",
  "systems/n5e/icons/skills/mech_5.jpg": "icons/esoteric/fire/flame-burning-chain.webp",
  "systems/n5e/icons/skills/mech_6.jpg": "icons/weapons/thrown/bomb-timer.webp",
  "systems/n5e/icons/skills/mech_7.jpg": "icons/commodities/tech/cog-bronze.webp",
  "systems/n5e/icons/skills/mech_8.jpg": "icons/commodities/tech/cog-steel.webp",
  "systems/n5e/icons/skills/mech_9.jpg": "icons/esoteric/light/beam-strike-village-yellow.webp",
  "systems/n5e/icons/skills/mech_10.jpg": "icons/tools/hand/screwdriver-flat-steel-black.webp",
  "systems/n5e/icons/skills/mech_11.jpg": "icons/tools/fasteners/screw-flat-steel-brown.webp",
  "systems/n5e/icons/skills/mech_12.jpg": "icons/esoteric/time/clock-stopwatch-white-blue.webp",
  "systems/n5e/icons/skills/mech_13.jpg": "icons/sundries/lights/lantern-iron-yellow.webp",
  "systems/n5e/icons/skills/mech_14.jpg": "icons/sundries/lights/torch-brown-lit.webp",
  "systems/n5e/icons/skills/mech_15.jpg": "icons/skills/ranged/bomb-grenade-thrown-purple.webp",
  "systems/n5e/icons/skills/nature_01.jpg": "icons/esoteric/nature/tree-roots-glow-yellow.webp",
  "systems/n5e/icons/skills/nature_02.jpg": "icons/commodities/flowers/lotus-pink.webp",
  "systems/n5e/icons/skills/nature_03.jpg": "icons/esoteric/nature/lotus-glow-pink.webp",
  "systems/n5e/icons/skills/nature_04.jpg": "icons/esoteric/nature/lotus-glow-pink.webp",
  "systems/n5e/icons/skills/nature_05.jpg": "icons/esoteric/nature/root-vine-hand-strike.webp",
  "systems/n5e/icons/skills/nature_06.jpg": "icons/esoteric/nature/tree-animated-strike.webp",
  "systems/n5e/icons/skills/nature_07.jpg": "icons/esoteric/unholy/orb-colllecting-energy-green.webp",
  "systems/n5e/icons/skills/nature_08.jpg": "icons/creatures/mammals/bats-movement-flying-black.webp",
  "systems/n5e/icons/skills/red_01.jpg": "icons/skills/social/intimidation-impressing.webp",
  "systems/n5e/icons/skills/red_02.jpg": "icons/creatures/unholy/demons-horned-glowing-pink.webp",
  "systems/n5e/icons/skills/red_03.jpg": "icons/esoteric/light/beam-red-orange.webp",
  "systems/n5e/icons/skills/red_04.jpg": "icons/commodities/tech/smoke-bomb-red-yellow.webp",
  "systems/n5e/icons/skills/red_05.jpg": "icons/skills/melee/hand-grip-staff-yellow-brown.webp",
  "systems/n5e/icons/skills/red_06.jpg": "icons/esoteric/control/debuff-chains-shackle-movement-red.webp",
  "systems/n5e/icons/skills/red_07.jpg": "icons/creatures/abilities/mouth-teeth-fire-orange.webp",
  "systems/n5e/icons/skills/red_08.jpg": "icons/environment/settlement/pyramid.webp",
  "systems/n5e/icons/skills/red_09.jpg": "icons/esoteric/perception/third-eye-blue-red.webp",
  "systems/n5e/icons/skills/red_10.jpg": "icons/creatures/abilities/mouth-teeth-human.webp",
  "systems/n5e/icons/skills/red_11.jpg": "icons/esoteric/lightning/strike-arrow-spear-red.webp",
  "systems/n5e/icons/skills/red_12.jpg": "icons/skills/melee/strike-axe-blood-red.webp",
  "systems/n5e/icons/skills/red_13.jpg": "icons/skills/melee/blade-tip-chipped-blood-red.webp",
  "systems/n5e/icons/skills/red_14.jpg": "icons/esoteric/fire/projectile-fireball-orange-yellow.webp",
  "systems/n5e/icons/skills/red_15.jpg": "icons/esoteric/life/heart-glowing-red.webp",
  "systems/n5e/icons/skills/red_16.jpg": "icons/skills/melee/shield-damaged-broken-orange.webp",
  "systems/n5e/icons/skills/red_17.jpg": "icons/skills/wounds/blood-cells-red.webp",
  "systems/n5e/icons/skills/red_18.jpg": "icons/esoteric/fire/explosion-embers-orange.webp",
  "systems/n5e/icons/skills/red_19.jpg": "icons/skills/wounds/blood-drip-droplet-red.webp",
  "systems/n5e/icons/skills/red_20.jpg": "icons/creatures/claws/claw-scaled-red.webp",
  "systems/n5e/icons/skills/red_21.jpg": "icons/skills/melee/strike-slashes-orange.webp",
  "systems/n5e/icons/skills/red_22.jpg": "icons/creatures/abilities/mouth-teeth-tongue-purple.webp",
  "systems/n5e/icons/skills/red_23.jpg": "icons/creatures/mammals/ox-bull-horned-glowing-orange.webp",
  "systems/n5e/icons/skills/red_24.jpg": "icons/esoteric/water/orb-water-ice-pink.webp",
  "systems/n5e/icons/skills/red_25.jpg": "icons/sundries/books/book-red-exclamation.webp",
  "systems/n5e/icons/skills/red_26.jpg": "icons/sundries/documents/document-sealed-red-yellow.webp",
  "systems/n5e/icons/skills/red_27.jpg": "icons/creatures/unholy/demon-hairy-winged-pink.webp",
  "systems/n5e/icons/skills/red_28.jpg": "icons/esoteric/death/undead-skeleton-deformed-red.webp",
  "systems/n5e/icons/skills/red_29.jpg": "icons/creatures/abilities/mouth-teeth-long-red.webp",
  "systems/n5e/icons/skills/red_30.jpg": "icons/esoteric/fire/flame-burning-campfire-rocks.webp",
  "systems/n5e/icons/skills/red_31.jpg": "icons/skills/melee/strike-slashes-red.webp",
  "systems/n5e/icons/skills/red_32.jpg": "icons/skills/melee/strike-flail-spiked-pink.webp",
  "systems/n5e/icons/skills/red_33.jpg": "icons/skills/wounds/anatomy-organ-heart-red.webp",
  "systems/n5e/icons/skills/red_34.jpg": "icons/skills/melee/strike-weapons-orange.webp",
  "systems/n5e/icons/skills/shadow_01.jpg": "icons/esoteric/death/projectile-skull-fire-purple.webp",
  "systems/n5e/icons/skills/shadow_02.jpg": "icons/esoteric/nature/root-vine-thorned-fire-purple.webp",
  "systems/n5e/icons/skills/shadow_03.jpg": "icons/esoteric/control/debuff-chains-shackles-movement-purple.webp",
  "systems/n5e/icons/skills/shadow_04.jpg": "icons/esoteric/death/hand-undead-skeleton-fire-pink.webp",
  "systems/n5e/icons/skills/shadow_05.jpg": "icons/esoteric/light/projectiles-pink-purple.webp",
  "systems/n5e/icons/skills/shadow_06.jpg": "icons/esoteric/fire/projectile-fireball-purple.webp",
  "systems/n5e/icons/skills/shadow_07.jpg": "icons/esoteric/air/wind-vortex-swirl-blue-purple.webp",
  "systems/n5e/icons/skills/shadow_08.jpg": "icons/esoteric/light/beam-explosion-pink-purple.webp",
  "systems/n5e/icons/skills/shadow_09.jpg": "icons/equipment/shield/heater-steel-segmented-purple.webp",
  "systems/n5e/icons/skills/shadow_10.jpg": "icons/esoteric/unholy/orb-glowing-yellow-purple.webp",
  "systems/n5e/icons/skills/shadow_11.jpg": "icons/esoteric/perception/hand-eye-pink.webp",
  "systems/n5e/icons/skills/shadow_12.jpg": "icons/esoteric/control/hypnosis-mesmerism-eye.webp",
  "systems/n5e/icons/skills/shadow_13.jpg": "icons/weapons/swords/sword-broad-crystal-paired.webp",
  "systems/n5e/icons/skills/shadow_14.jpg": "icons/esoteric/nature/tree-spirit-black.webp",
  "systems/n5e/icons/skills/shadow_15.jpg": "icons/creatures/mammals/bats-movement-flying-purple.webp",
  "systems/n5e/icons/skills/shadow_16.jpg": "icons/creatures/mammals/wolf-shadow-black.webp",
  "systems/n5e/icons/skills/shadow_17.jpg": "icons/esoteric/perception/silhouette-stealth-shadow.webp",
  "systems/n5e/icons/skills/shadow_18.jpg": "icons/esoteric/unholy/orb-glowing-purple.webp",
  "systems/n5e/icons/skills/shadow_19.jpg": "icons/esoteric/light/explosion-impact-purple.webp",
  "systems/n5e/icons/skills/shadow_20.jpg": "icons/esoteric/air/wind-vortex-swirl-purple.webp",
  "systems/n5e/icons/skills/shadow_21.jpg": "icons/esoteric/fire/flame-burning-hand-purple.webp",
  "systems/n5e/icons/skills/violet_01.jpg": "icons/esoteric/lightning/bolt-strike-beam-purple.webp",
  "systems/n5e/icons/skills/violet_02.jpg": "icons/esoteric/perception/eye-slit-pink.webp",
  "systems/n5e/icons/skills/violet_03.jpg": "icons/esoteric/defensive/illusion-evasion-echo-purple.webp",
  "systems/n5e/icons/skills/violet_04.jpg": "icons/weapons/swords/sword-runed-glowing.webp",
  "systems/n5e/icons/skills/violet_05.jpg": "icons/esoteric/unholy/orb-beam-pink.webp",
  "systems/n5e/icons/skills/violet_06.jpg": "icons/esoteric/unholy/beam-impact-purple.webp",
  "systems/n5e/icons/skills/violet_07.jpg": "icons/esoteric/unholy/silhouette-robe-evil-power.webp",
  "systems/n5e/icons/skills/violet_08.jpg": "icons/esoteric/light/projectiles-star-purple.webp",
  "systems/n5e/icons/skills/violet_09.jpg": "icons/esoteric/perception/eye-tendrils-web-purple.webp",
  "systems/n5e/icons/skills/violet_10.jpg": "icons/esoteric/control/hypnosis-mesmerism-watch.webp",
  "systems/n5e/icons/skills/violet_11.jpg": "icons/creatures/fish/fish-fangtooth-skeletal-pink.webp",
  "systems/n5e/icons/skills/violet_12.jpg": "icons/esoteric/unholy/barrier-shield-glowing-pink.webp",
  "systems/n5e/icons/skills/violet_13.jpg": "icons/equipment/head/helm-barbute-horned-copper.webp",
  "systems/n5e/icons/skills/violet_14.jpg": "icons/creatures/webs/web-spider-glowing-purple.webp",
  "systems/n5e/icons/skills/violet_15.jpg": "icons/esoteric/control/control-influence-rally-purple.webp",
  "systems/n5e/icons/skills/violet_16.jpg": "icons/esoteric/water/bubbles-air-water-pink.webp",
  "systems/n5e/icons/skills/violet_17.jpg": "icons/esoteric/air/wind-vortex-swirl-purple.webp",
  "systems/n5e/icons/skills/violet_18.jpg": "icons/creatures/birds/corvid-flying-wings-purple.webp",
  "systems/n5e/icons/skills/violet_19.jpg": "icons/creatures/unholy/demon-winged-cyclops-drooling.webp",
  "systems/n5e/icons/skills/violet_20.jpg": "icons/esoteric/symbols/rune-sigil-black-pink.webp",
  "systems/n5e/icons/skills/violet_21.jpg": "icons/creatures/mammals/bat-giant-tattered-purple.webp",
  "systems/n5e/icons/skills/violet_22.jpg": "icons/creatures/abilities/dragon-breath-purple.webp",
  "systems/n5e/icons/skills/violet_23.jpg": "icons/creatures/slimes/slime-movement-dripping-purple.webp",
  "systems/n5e/icons/skills/violet_24.jpg": "icons/creatures/claws/claw-curved-poison-purple.webp",
  "systems/n5e/icons/skills/violet_25.jpg": "icons/commodities/tech/smoke-bomb-purple.webp",
  "systems/n5e/icons/skills/violet_26.jpg": "icons/esoteric/lightning/orb-ball-purple.webp",
  "systems/n5e/icons/skills/violet_27.jpg": "icons/skills/melee/strike-dagger-arcane-pink.webp",
  "systems/n5e/icons/skills/violet_28.jpg": "icons/esoteric/unholy/strike-hand-glow-pink.webp",
  "systems/n5e/icons/skills/water_01.jpg": "icons/esoteric/water/bubbles-air-water-light.webp",
  "systems/n5e/icons/skills/water_02.jpg": "icons/esoteric/water/wave-water-explosion.webp",
  "systems/n5e/icons/skills/water_03.jpg": "icons/esoteric/death/skull-humanoid-worn-teal.webp",
  "systems/n5e/icons/skills/water_04.jpg": "icons/esoteric/water/orb-water-bubbles.webp",
  "systems/n5e/icons/skills/water_05.jpg": "icons/esoteric/water/bubbles-air-water-blue.webp",
  "systems/n5e/icons/skills/water_07.jpg": "icons/esoteric/water/elemental-water.webp",
  "systems/n5e/icons/skills/water_08.jpg": "icons/esoteric/water/wave-water-blue.webp",
  "systems/n5e/icons/skills/water_09.jpg": "icons/esoteric/water/projectile-ice-teardrop.webp",
  "systems/n5e/icons/skills/water_10.jpg": "icons/commodities/gems/pearl-water.webp",
  "systems/n5e/icons/skills/weapon_01.jpg": "icons/skills/melee/hand-grip-sword-orange.webp",
  "systems/n5e/icons/skills/weapon_02.jpg": "icons/skills/melee/hand-grip-staff-yellow-brown.webp",
  "systems/n5e/icons/skills/weapon_03.jpg": "icons/skills/ranged/target-bullseye-arrow-white.webp",
  "systems/n5e/icons/skills/weapon_04.jpg": "icons/skills/melee/sword-damaged-broken-orange.webp",
  "systems/n5e/icons/skills/weapon_05.jpg": "icons/skills/ranged/arrows-triple-yellow-red.webp",
  "systems/n5e/icons/skills/weapon_06.jpg": "icons/skills/melee/strike-axe-blood-red.webp",
  "systems/n5e/icons/skills/weapon_07.jpg": "icons/skills/melee/strike-weapon-polearm-ice-blue.webp",
  "systems/n5e/icons/skills/weapon_08.jpg": "icons/skills/melee/spear-tips-triple-orange.webp",
  "systems/n5e/icons/skills/weapon_09.jpg": "icons/esoteric/unholy/hand-claw-fire-blue.webp",
  "systems/n5e/icons/skills/weapon_10.jpg": "icons/esoteric/unholy/hand-claw-fog-green.webp",
  "systems/n5e/icons/skills/weapon_11.jpg": "icons/skills/melee/maneuver-greatsword-yellow.webp",
  "systems/n5e/icons/skills/weapon_12.jpg": "icons/skills/melee/maneuver-daggers-paired-orange.webp",
  "systems/n5e/icons/skills/weapon_13.jpg": "icons/esoteric/defensive/shield-barrier-deflect-teal.webp",
  "systems/n5e/icons/skills/weapon_14.jpg": "icons/esoteric/defensive/shield-barrier-deflect-gold.webp",
  "systems/n5e/icons/skills/weapon_15.jpg": "icons/equipment/shield/heater-stone-orange.webp",
  "systems/n5e/icons/skills/weapon_16.jpg": "icons/equipment/shield/buckler-wooden-boss-glowing-blue.webp",
  "systems/n5e/icons/skills/weapon_17.jpg": "icons/skills/melee/shield-damaged-broken-gold.webp",
  "systems/n5e/icons/skills/weapon_18.jpg": "icons/equipment/shield/kite-wooden-oak-glow.webp",
  "systems/n5e/icons/skills/weapon_19.jpg": "icons/skills/melee/strike-axe-blood-red.webp",
  "systems/n5e/icons/skills/weapon_20.jpg": "icons/skills/melee/strike-scythe-fire-green.webp",
  "systems/n5e/icons/skills/weapon_21.jpg": "icons/skills/melee/weapons-crossed-swords-yellow-teal.webp",
  "systems/n5e/icons/skills/weapon_22.jpg": "icons/skills/melee/weapons-crossed-daggers-orange.webp",
  "systems/n5e/icons/skills/weapon_23.jpg": "icons/skills/melee/strike-sword-steel-yellow.webp",
  "systems/n5e/icons/skills/weapon_24.jpg": "icons/skills/melee/blade-tips-triple-steel.webp",
  "systems/n5e/icons/skills/weapon_25.jpg": "icons/skills/melee/sword-stuck-glowing-pink.webp",
  "systems/n5e/icons/skills/weapon_26.jpg": "icons/skills/melee/weapons-crossed-swords-yellow.webp",
  "systems/n5e/icons/skills/weapon_27.jpg": "icons/skills/melee/weapons-crossed-swords-purple.webp",
  "systems/n5e/icons/skills/weapon_28.jpg": "icons/skills/melee/weapons-crossed-swords-white-blue.webp",
  "systems/n5e/icons/skills/weapon_29.jpg": "icons/skills/melee/strike-sword-blood-red.webp",
  "systems/n5e/icons/skills/weapon_30.jpg": "icons/weapons/polearms/spear-flared-gold.webp",
  "systems/n5e/icons/skills/weapon_31.jpg": "icons/weapons/polearms/spear-flared-silver-pink.webp",
  "systems/n5e/icons/skills/weapon_32.jpg": "icons/weapons/polearms/spear-barbed-silver.webp",
  "systems/n5e/icons/skills/weapon_33.jpg": "icons/esoteric/lightning/strike-arrow-spear-red.webp",
  "systems/n5e/icons/skills/weapon_34.jpg": "icons/skills/melee/blade-tips-triple-bent-white.webp",
  "systems/n5e/icons/skills/weapon_35.jpg": "icons/weapons/guns/gun-worn-steel.webp",
  "systems/n5e/icons/skills/weapon_36.jpg": "icons/skills/ranged/cannon-barrel-firing-yellow.webp",
  "systems/n5e/icons/skills/weapon_37.jpg": "icons/weapons/guns/gun-topbarrel.webp",
  "systems/n5e/icons/skills/weapon_38.jpg": "icons/skills/ranged/cannon-barrel-firing-orange.webp",
  "systems/n5e/icons/skills/weapon_39.jpg": "icons/skills/melee/strike-sword-blood-red.webp",
  "systems/n5e/icons/skills/weapon_40.jpg": "icons/skills/ranged/shuriken-thrown-yellow.webp",
  "systems/n5e/icons/skills/weapon_41.jpg": "icons/skills/ranged/daggers-thrown-salvo-green.webp",
  "systems/n5e/icons/skills/weapon_42.jpg": "icons/skills/melee/strike-hammer-destructive-orange.webp",
  "systems/n5e/icons/skills/weapon_43.jpg": "icons/skills/melee/strike-dagger-poison-dripping-green.webp",
  "systems/n5e/icons/skills/weapon_44.jpg": "icons/skills/targeting/target-strike-gray.webp",
  "systems/n5e/icons/skills/yellow_01.jpg": "icons/esoteric/light/explosion-star-glow-yellow.webp",
  "systems/n5e/icons/skills/yellow_02.jpg": "icons/skills/ranged/bomb-grenade-thrown-purple.webp",
  "systems/n5e/icons/skills/yellow_03.jpg": "icons/skills/wounds/bone-broken-knee-beam.webp",
  "systems/n5e/icons/skills/yellow_04.jpg": "icons/creatures/abilities/paw-print-orange.webp",
  "systems/n5e/icons/skills/yellow_05.jpg": "icons/esoteric/earth/projectile-boulder-yellow.webp",
  "systems/n5e/icons/skills/yellow_06.jpg": "icons/skills/melee/spear-tips-quintuple-orange.webp",
  "systems/n5e/icons/skills/yellow_07.jpg": "icons/esoteric/lightning/bolt-strike-smoke-yellow.webp",
  "systems/n5e/icons/skills/yellow_08.jpg": "icons/skills/melee/unarmed-punch-fist.webp",
  "systems/n5e/icons/skills/yellow_09.jpg": "icons/esoteric/light/hand-sparks-glow-yellow.webp",
  "systems/n5e/icons/skills/yellow_10.jpg": "icons/esoteric/light/projectile-beam-yellow.webp",
  "systems/n5e/icons/skills/yellow_11.jpg": "icons/esoteric/light/beam-strike-orange-gold.webp",
  "systems/n5e/icons/skills/yellow_12.jpg": "icons/skills/ranged/projectile-explosion-black-orange.webp",
  "systems/n5e/icons/skills/yellow_13.jpg": "icons/esoteric/light/explosion-beam-impact-silhouette.webp",
  "systems/n5e/icons/skills/yellow_14.jpg": "icons/creatures/mystical/construct-iron-stomping-yellow.webp",
  "systems/n5e/icons/skills/yellow_15.jpg": "icons/esoteric/fire/barrier-wall-explosion-orange.webp",
  "systems/n5e/icons/skills/yellow_16.jpg": "icons/skills/melee/strike-sword-steel-yellow.webp",
  "systems/n5e/icons/skills/yellow_17.jpg": "icons/skills/wounds/injury-face-impact-orange.webp",
  "systems/n5e/icons/skills/yellow_18.jpg": "icons/esoteric/fire/explosion-embers-evade-silhouette.webp",
  "systems/n5e/icons/skills/yellow_19.jpg": "icons/esoteric/fire/flame-burning-creature-skeleton.webp",
  "systems/n5e/icons/skills/yellow_20.jpg": "icons/creatures/unholy/demon-fanged-horned-yellow.webp",
  "systems/n5e/icons/skills/yellow_21.jpg": "icons/weapons/hammers/hammer-double-glowing-yellow.webp",
  "systems/n5e/icons/skills/yellow_22.jpg": "icons/esoteric/symbols/runes-etched-steel-blade.webp",
  "systems/n5e/icons/skills/yellow_23.jpg": "icons/creatures/claws/claw-talons-glowing-orange.webp",
  "systems/n5e/icons/skills/yellow_24.jpg": "icons/environment/wilderness/portal.webp",
  "systems/n5e/icons/skills/yellow_25.jpg": "icons/creatures/unholy/demon-horned-black-yellow.webp",
  "systems/n5e/icons/skills/yellow_26.jpg": "icons/skills/melee/blade-tip-orange.webp",
  "systems/n5e/icons/skills/yellow_27.jpg": "icons/weapons/axes/axe-broad-chipped-glow-yellow.webp",
  "systems/n5e/icons/skills/yellow_28.jpg": "icons/esoteric/air/air-wave-gust-smoke-yellow.webp",
  "systems/n5e/icons/skills/yellow_29.jpg": "icons/esoteric/symbols/runes-carved-stone-yellow.webp",
  "systems/n5e/icons/skills/yellow_30.jpg": "icons/esoteric/fire/beam-jet-stream-yellow.webp",
  "systems/n5e/icons/skills/yellow_31.jpg": "icons/environment/settlement/watchtower-silhouette-yellow.webp",
  "systems/n5e/icons/skills/yellow_32.jpg": "icons/esoteric/death/skull-sand-white-yellow.webp",
  "systems/n5e/icons/skills/yellow_33.jpg": "icons/sundries/misc/key-short-glowing.webp",
  "systems/n5e/icons/skills/yellow_34.jpg": "icons/skills/ranged/target-bullseye-arrow-glowing.webp",
  "systems/n5e/icons/skills/yellow_35.jpg": "icons/skills/targeting/target-glowing-yellow.webp",
  "systems/n5e/icons/skills/yellow_36.jpg": "icons/skills/trades/academics-investigation-puzzles.webp",
  "systems/n5e/icons/skills/yellow_37.jpg": "icons/skills/melee/weapons-crossed-swords-yellow.webp",
  "systems/n5e/icons/skills/yellow_38.jpg": "icons/esoteric/fire/projectile-wave-arrow.webp",
  "systems/n5e/icons/skills/yellow_39.jpg": "icons/esoteric/time/day-night-sunset-sunrise.webp",
  "systems/n5e/icons/skills/yellow_40.jpg": "icons/esoteric/control/encase-creature-monster-hold.webp",
  "systems/n5e/icons/skills/yellow_41.jpg": "icons/sundries/documents/document-torn-diagram-tan.webp",
  "systems/n5e/icons/skills/yellow_42.jpg": "icons/esoteric/nature/tree-bare-glow-yellow.webp",
  "systems/n5e/icons/skills/yellow_43.jpg": "icons/esoteric/death/skeleton-dinosaur-skull-tan.webp"
}