<?xml version="1.0" encoding="UTF-8" standalone="no"?>
<!DOCTYPE svg PUBLIC "-//W3C//DTD SVG 1.1//EN" "http://www.w3.org/Graphics/SVG/1.1/DTD/svg11.dtd">
<svg width="100%" height="100%" viewBox="0 0 512 512" version="1.1" xmlns="http://www.w3.org/2000/svg" xmlns:xlink="http://www.w3.org/1999/xlink" xml:space="preserve" xmlns:serif="http://www.serif.com/" style="fill-rule:evenodd;clip-rule:evenodd;stroke-linejoin:round;stroke-miterlimit:2;">
    <g>
        <path d="M250.594,20.906C205.169,21.224 160.944,41.881 137.814,82.188C115.22,121.562 103.584,164.91 106.5,197.594C107.958,213.934 112.893,227.387 121.22,237.094C129.545,246.8 141.324,253.267 158.75,255.124L169.75,256.314L166.75,266.969C164.413,275.241 163,283.225 163,291.874C163,318.912 167.292,371.216 181.5,415.437C188.604,437.547 198.215,457.594 210.28,471.53C222.348,485.468 236.135,493.375 254.094,493.375C272.054,493.375 285.871,485.468 297.938,471.531C310.004,457.596 319.615,437.549 326.718,415.439C340.928,371.219 345.218,318.914 345.218,291.876C345.218,283.226 343.808,275.241 341.468,266.97L338.5,256.437L349.375,255.157C366.521,253.117 378.425,246.79 386.845,237.437C395.262,228.085 400.335,215.267 401.845,199.437C404.865,167.777 392.887,124.762 367.031,82.407C341.531,40.633 296.104,20.607 250.657,20.907L250.595,20.907L250.594,20.906ZM173.406,145.47C197.853,145.47 217.469,165.05 217.469,189.5C217.469,213.946 197.852,233.563 173.405,233.563C148.959,233.563 129.375,213.946 129.375,189.5C129.375,165.054 148.959,145.47 173.405,145.47L173.406,145.47ZM334.844,145.47C359.291,145.47 378.906,165.05 378.906,189.5C378.906,213.946 359.29,233.563 334.844,233.563C310.397,233.563 290.814,213.946 290.814,189.5C290.812,165.054 310.397,145.47 334.844,145.47ZM172.374,180.563C165.751,180.563 160.594,185.751 160.594,192.375C160.594,198.999 165.751,204.155 172.374,204.155C178.999,204.155 184.188,198.999 184.188,192.375C184.188,185.748 179,180.562 172.375,180.562L172.374,180.563ZM336.594,180.563C329.97,180.563 324.814,185.751 324.814,192.375C324.812,198.999 329.97,204.155 336.594,204.155C343.218,204.155 348.406,198.999 348.406,192.375C348.406,185.748 343.219,180.562 336.594,180.562L336.594,180.563ZM255.188,232.469C293.95,232.469 324.063,268.479 324.063,311.062C324.063,331 321.606,367.254 312.531,399.749C307.995,415.996 301.876,431.329 292.845,443.312C283.815,455.292 270.885,464.124 255.189,464.124C239.493,464.124 226.563,455.294 217.532,443.311C208.502,431.331 202.382,415.996 197.846,399.749C188.771,367.254 186.283,330.999 186.283,311.061C186.283,268.477 216.428,232.468 255.19,232.468L255.188,232.469ZM255.188,251.155C237.258,251.155 221.028,262.608 212.125,280.218L298.219,280.218C289.324,262.608 273.116,251.154 255.186,251.154L255.188,251.155ZM227.906,425.093C229.356,427.625 230.862,429.971 232.436,432.063C239.216,441.053 246.128,445.436 255.186,445.436C264.246,445.436 271.129,441.053 277.906,432.061C279.482,429.971 280.986,427.625 282.436,425.093L227.906,425.093Z" style="fill-rule:nonzero;stroke:white;stroke-width:1px;"/>
    </g>
</svg>
